solid OpenSCAD_Model
  facet normal -0.987688 -0.156434 0
    outer loop
      vertex 3.9 2.5 0
      vertex 3.83148 2.93262 5
      vertex 3.83148 2.93262 0
    endloop
  endfacet
  facet normal -0.987688 -0.156434 0
    outer loop
      vertex 3.83148 2.93262 5
      vertex 3.9 2.5 0
      vertex 3.9 2.5 5
    endloop
  endfacet
  facet normal 0.987688 0.156434 0
    outer loop
      vertex 1.16852 2.06738 5
      vertex 1.1 2.5 0
      vertex 1.1 2.5 5
    endloop
  endfacet
  facet normal 0.987688 0.156434 0
    outer loop
      vertex 1.1 2.5 0
      vertex 1.16852 2.06738 5
      vertex 1.16852 2.06738 0
    endloop
  endfacet
  facet normal 0.156434 -0.987688 0
    outer loop
      vertex 2.06738 3.83148 0
      vertex 2.5 3.9 5
      vertex 2.06738 3.83148 5
    endloop
  endfacet
  facet normal 0.156434 -0.987688 0
    outer loop
      vertex 2.5 3.9 5
      vertex 2.06738 3.83148 0
      vertex 2.5 3.9 0
    endloop
  endfacet
  facet normal -0.156434 0.987688 0
    outer loop
      vertex 2.93262 1.16852 0
      vertex 2.5 1.1 5
      vertex 2.93262 1.16852 5
    endloop
  endfacet
  facet normal -0.156434 0.987688 0
    outer loop
      vertex 2.5 1.1 5
      vertex 2.93262 1.16852 0
      vertex 2.5 1.1 0
    endloop
  endfacet
  facet normal -0.707107 -0.707107 0
    outer loop
      vertex 3.63262 3.3229 0
      vertex 3.3229 3.63262 5
      vertex 3.3229 3.63262 0
    endloop
  endfacet
  facet normal -0.707107 -0.707107 0
    outer loop
      vertex 3.3229 3.63262 5
      vertex 3.63262 3.3229 0
      vertex 3.63262 3.3229 5
    endloop
  endfacet
  facet normal -0.891007 -0.45399 0
    outer loop
      vertex 3.83148 2.93262 0
      vertex 3.63262 3.3229 5
      vertex 3.63262 3.3229 0
    endloop
  endfacet
  facet normal -0.891007 -0.45399 0
    outer loop
      vertex 3.63262 3.3229 5
      vertex 3.83148 2.93262 0
      vertex 3.83148 2.93262 5
    endloop
  endfacet
  facet normal -0.45399 -0.891007 0
    outer loop
      vertex 2.93262 3.83148 0
      vertex 3.3229 3.63262 5
      vertex 2.93262 3.83148 5
    endloop
  endfacet
  facet normal -0.45399 -0.891007 -0
    outer loop
      vertex 3.3229 3.63262 5
      vertex 2.93262 3.83148 0
      vertex 3.3229 3.63262 0
    endloop
  endfacet
  facet normal 0.707107 -0.707107 0
    outer loop
      vertex 1.36738 3.3229 5
      vertex 1.6771 3.63262 0
      vertex 1.6771 3.63262 5
    endloop
  endfacet
  facet normal 0.707107 -0.707107 0
    outer loop
      vertex 1.6771 3.63262 0
      vertex 1.36738 3.3229 5
      vertex 1.36738 3.3229 0
    endloop
  endfacet
  facet normal 0.891007 -0.45399 0
    outer loop
      vertex 1.16852 2.93262 5
      vertex 1.36738 3.3229 0
      vertex 1.36738 3.3229 5
    endloop
  endfacet
  facet normal 0.891007 -0.45399 0
    outer loop
      vertex 1.36738 3.3229 0
      vertex 1.16852 2.93262 5
      vertex 1.16852 2.93262 0
    endloop
  endfacet
  facet normal 0.45399 -0.891007 0
    outer loop
      vertex 1.6771 3.63262 0
      vertex 2.06738 3.83148 5
      vertex 1.6771 3.63262 5
    endloop
  endfacet
  facet normal 0.45399 -0.891007 0
    outer loop
      vertex 2.06738 3.83148 5
      vertex 1.6771 3.63262 0
      vertex 2.06738 3.83148 0
    endloop
  endfacet
  facet normal -0.45399 0.891007 0
    outer loop
      vertex 3.3229 1.36738 0
      vertex 2.93262 1.16852 5
      vertex 3.3229 1.36738 5
    endloop
  endfacet
  facet normal -0.45399 0.891007 0
    outer loop
      vertex 2.93262 1.16852 5
      vertex 3.3229 1.36738 0
      vertex 2.93262 1.16852 0
    endloop
  endfacet
  facet normal -0.891007 0.45399 0
    outer loop
      vertex 3.63262 1.6771 0
      vertex 3.83148 2.06738 5
      vertex 3.83148 2.06738 0
    endloop
  endfacet
  facet normal -0.891007 0.45399 0
    outer loop
      vertex 3.83148 2.06738 5
      vertex 3.63262 1.6771 0
      vertex 3.63262 1.6771 5
    endloop
  endfacet
  facet normal 0.45399 0.891007 -0
    outer loop
      vertex 2.06738 1.16852 0
      vertex 1.6771 1.36738 5
      vertex 2.06738 1.16852 5
    endloop
  endfacet
  facet normal 0.45399 0.891007 0
    outer loop
      vertex 1.6771 1.36738 5
      vertex 2.06738 1.16852 0
      vertex 1.6771 1.36738 0
    endloop
  endfacet
  facet normal 0.891007 0.45399 0
    outer loop
      vertex 1.36738 1.6771 5
      vertex 1.16852 2.06738 0
      vertex 1.16852 2.06738 5
    endloop
  endfacet
  facet normal 0.891007 0.45399 0
    outer loop
      vertex 1.16852 2.06738 0
      vertex 1.36738 1.6771 5
      vertex 1.36738 1.6771 0
    endloop
  endfacet
  facet normal -0.156434 -0.987688 0
    outer loop
      vertex 2.5 3.9 0
      vertex 2.93262 3.83148 5
      vertex 2.5 3.9 5
    endloop
  endfacet
  facet normal -0.156434 -0.987688 -0
    outer loop
      vertex 2.93262 3.83148 5
      vertex 2.5 3.9 0
      vertex 2.93262 3.83148 0
    endloop
  endfacet
  facet normal 0.987688 -0.156434 0
    outer loop
      vertex 1.1 2.5 5
      vertex 1.16852 2.93262 0
      vertex 1.16852 2.93262 5
    endloop
  endfacet
  facet normal 0.987688 -0.156434 0
    outer loop
      vertex 1.16852 2.93262 0
      vertex 1.1 2.5 5
      vertex 1.1 2.5 0
    endloop
  endfacet
  facet normal -0.987688 0.156434 0
    outer loop
      vertex 3.83148 2.06738 0
      vertex 3.9 2.5 5
      vertex 3.9 2.5 0
    endloop
  endfacet
  facet normal -0.987688 0.156434 0
    outer loop
      vertex 3.9 2.5 5
      vertex 3.83148 2.06738 0
      vertex 3.83148 2.06738 5
    endloop
  endfacet
  facet normal -0.707107 0.707107 0
    outer loop
      vertex 3.3229 1.36738 0
      vertex 3.63262 1.6771 5
      vertex 3.63262 1.6771 0
    endloop
  endfacet
  facet normal -0.707107 0.707107 0
    outer loop
      vertex 3.63262 1.6771 5
      vertex 3.3229 1.36738 0
      vertex 3.3229 1.36738 5
    endloop
  endfacet
  facet normal 0.156434 0.987688 -0
    outer loop
      vertex 2.5 1.1 0
      vertex 2.06738 1.16852 5
      vertex 2.5 1.1 5
    endloop
  endfacet
  facet normal 0.156434 0.987688 0
    outer loop
      vertex 2.06738 1.16852 5
      vertex 2.5 1.1 0
      vertex 2.06738 1.16852 0
    endloop
  endfacet
  facet normal 0.707107 0.707107 0
    outer loop
      vertex 1.6771 1.36738 5
      vertex 1.36738 1.6771 0
      vertex 1.36738 1.6771 5
    endloop
  endfacet
  facet normal 0.707107 0.707107 0
    outer loop
      vertex 1.36738 1.6771 0
      vertex 1.6771 1.36738 5
      vertex 1.6771 1.36738 0
    endloop
  endfacet
  facet normal -0.987688 -0.156434 0
    outer loop
      vertex 3.9 17.5 0
      vertex 3.83148 17.9326 5
      vertex 3.83148 17.9326 0
    endloop
  endfacet
  facet normal -0.987688 -0.156434 0
    outer loop
      vertex 3.83148 17.9326 5
      vertex 3.9 17.5 0
      vertex 3.9 17.5 5
    endloop
  endfacet
  facet normal 0.156436 -0.987688 0
    outer loop
      vertex 2.06738 18.8315 0
      vertex 2.5 18.9 5
      vertex 2.06738 18.8315 5
    endloop
  endfacet
  facet normal 0.156436 -0.987688 0
    outer loop
      vertex 2.5 18.9 5
      vertex 2.06738 18.8315 0
      vertex 2.5 18.9 0
    endloop
  endfacet
  facet normal -0.156436 0.987688 0
    outer loop
      vertex 2.93262 16.1685 0
      vertex 2.5 16.1 5
      vertex 2.93262 16.1685 5
    endloop
  endfacet
  facet normal -0.156436 0.987688 0
    outer loop
      vertex 2.5 16.1 5
      vertex 2.93262 16.1685 0
      vertex 2.5 16.1 0
    endloop
  endfacet
  facet normal -0.707107 -0.707107 0
    outer loop
      vertex 3.63262 18.3229 0
      vertex 3.3229 18.6326 5
      vertex 3.3229 18.6326 0
    endloop
  endfacet
  facet normal -0.707107 -0.707107 0
    outer loop
      vertex 3.3229 18.6326 5
      vertex 3.63262 18.3229 0
      vertex 3.63262 18.3229 5
    endloop
  endfacet
  facet normal -0.891007 -0.45399 0
    outer loop
      vertex 3.83148 17.9326 0
      vertex 3.63262 18.3229 5
      vertex 3.63262 18.3229 0
    endloop
  endfacet
  facet normal -0.891007 -0.45399 0
    outer loop
      vertex 3.63262 18.3229 5
      vertex 3.83148 17.9326 0
      vertex 3.83148 17.9326 5
    endloop
  endfacet
  facet normal -0.453989 -0.891008 0
    outer loop
      vertex 2.93262 18.8315 0
      vertex 3.3229 18.6326 5
      vertex 2.93262 18.8315 5
    endloop
  endfacet
  facet normal -0.453989 -0.891008 -0
    outer loop
      vertex 3.3229 18.6326 5
      vertex 2.93262 18.8315 0
      vertex 3.3229 18.6326 0
    endloop
  endfacet
  facet normal 0.707107 -0.707107 0
    outer loop
      vertex 1.36738 18.3229 5
      vertex 1.6771 18.6326 0
      vertex 1.6771 18.6326 5
    endloop
  endfacet
  facet normal 0.707107 -0.707107 0
    outer loop
      vertex 1.6771 18.6326 0
      vertex 1.36738 18.3229 5
      vertex 1.36738 18.3229 0
    endloop
  endfacet
  facet normal 0.891007 -0.45399 0
    outer loop
      vertex 1.16852 17.9326 5
      vertex 1.36738 18.3229 0
      vertex 1.36738 18.3229 5
    endloop
  endfacet
  facet normal 0.891007 -0.45399 0
    outer loop
      vertex 1.36738 18.3229 0
      vertex 1.16852 17.9326 5
      vertex 1.16852 17.9326 0
    endloop
  endfacet
  facet normal 0.453989 -0.891008 0
    outer loop
      vertex 1.6771 18.6326 0
      vertex 2.06738 18.8315 5
      vertex 1.6771 18.6326 5
    endloop
  endfacet
  facet normal 0.453989 -0.891008 0
    outer loop
      vertex 2.06738 18.8315 5
      vertex 1.6771 18.6326 0
      vertex 2.06738 18.8315 0
    endloop
  endfacet
  facet normal -0.453989 0.891008 0
    outer loop
      vertex 3.3229 16.3674 0
      vertex 2.93262 16.1685 5
      vertex 3.3229 16.3674 5
    endloop
  endfacet
  facet normal -0.453989 0.891008 0
    outer loop
      vertex 2.93262 16.1685 5
      vertex 3.3229 16.3674 0
      vertex 2.93262 16.1685 0
    endloop
  endfacet
  facet normal -0.891006 0.453992 0
    outer loop
      vertex 3.63262 16.6771 0
      vertex 3.83148 17.0674 5
      vertex 3.83148 17.0674 0
    endloop
  endfacet
  facet normal -0.891006 0.453992 0
    outer loop
      vertex 3.83148 17.0674 5
      vertex 3.63262 16.6771 0
      vertex 3.63262 16.6771 5
    endloop
  endfacet
  facet normal 0.453989 0.891008 -0
    outer loop
      vertex 2.06738 16.1685 0
      vertex 1.6771 16.3674 5
      vertex 2.06738 16.1685 5
    endloop
  endfacet
  facet normal 0.453989 0.891008 0
    outer loop
      vertex 1.6771 16.3674 5
      vertex 2.06738 16.1685 0
      vertex 1.6771 16.3674 0
    endloop
  endfacet
  facet normal 0.891006 0.453992 0
    outer loop
      vertex 1.36738 16.6771 5
      vertex 1.16852 17.0674 0
      vertex 1.16852 17.0674 5
    endloop
  endfacet
  facet normal 0.891006 0.453992 0
    outer loop
      vertex 1.16852 17.0674 0
      vertex 1.36738 16.6771 5
      vertex 1.36738 16.6771 0
    endloop
  endfacet
  facet normal -0.156436 -0.987688 0
    outer loop
      vertex 2.5 18.9 0
      vertex 2.93262 18.8315 5
      vertex 2.5 18.9 5
    endloop
  endfacet
  facet normal -0.156436 -0.987688 -0
    outer loop
      vertex 2.93262 18.8315 5
      vertex 2.5 18.9 0
      vertex 2.93262 18.8315 0
    endloop
  endfacet
  facet normal 0.987688 -0.156434 0
    outer loop
      vertex 1.1 17.5 5
      vertex 1.16852 17.9326 0
      vertex 1.16852 17.9326 5
    endloop
  endfacet
  facet normal 0.987688 -0.156434 0
    outer loop
      vertex 1.16852 17.9326 0
      vertex 1.1 17.5 5
      vertex 1.1 17.5 0
    endloop
  endfacet
  facet normal -0.987689 0.156433 0
    outer loop
      vertex 3.83148 17.0674 0
      vertex 3.9 17.5 5
      vertex 3.9 17.5 0
    endloop
  endfacet
  facet normal -0.987689 0.156433 0
    outer loop
      vertex 3.9 17.5 5
      vertex 3.83148 17.0674 0
      vertex 3.83148 17.0674 5
    endloop
  endfacet
  facet normal -0.707109 0.707105 0
    outer loop
      vertex 3.3229 16.3674 0
      vertex 3.63262 16.6771 5
      vertex 3.63262 16.6771 0
    endloop
  endfacet
  facet normal -0.707109 0.707105 0
    outer loop
      vertex 3.63262 16.6771 5
      vertex 3.3229 16.3674 0
      vertex 3.3229 16.3674 5
    endloop
  endfacet
  facet normal 0.156436 0.987688 -0
    outer loop
      vertex 2.5 16.1 0
      vertex 2.06738 16.1685 5
      vertex 2.5 16.1 5
    endloop
  endfacet
  facet normal 0.156436 0.987688 0
    outer loop
      vertex 2.06738 16.1685 5
      vertex 2.5 16.1 0
      vertex 2.06738 16.1685 0
    endloop
  endfacet
  facet normal 0.707109 0.707105 0
    outer loop
      vertex 1.6771 16.3674 5
      vertex 1.36738 16.6771 0
      vertex 1.36738 16.6771 5
    endloop
  endfacet
  facet normal 0.707109 0.707105 0
    outer loop
      vertex 1.36738 16.6771 0
      vertex 1.6771 16.3674 5
      vertex 1.6771 16.3674 0
    endloop
  endfacet
  facet normal 0.987689 0.156433 0
    outer loop
      vertex 1.16852 17.0674 5
      vertex 1.1 17.5 0
      vertex 1.1 17.5 5
    endloop
  endfacet
  facet normal 0.987689 0.156433 0
    outer loop
      vertex 1.1 17.5 0
      vertex 1.16852 17.0674 5
      vertex 1.16852 17.0674 0
    endloop
  endfacet
  facet normal -0.987688 -0.156436 0
    outer loop
      vertex 23.9 2.5 0
      vertex 23.8315 2.93262 5
      vertex 23.8315 2.93262 0
    endloop
  endfacet
  facet normal -0.987688 -0.156436 0
    outer loop
      vertex 23.8315 2.93262 5
      vertex 23.9 2.5 0
      vertex 23.9 2.5 5
    endloop
  endfacet
  facet normal 0.156433 -0.987689 0
    outer loop
      vertex 22.0674 3.83148 0
      vertex 22.5 3.9 5
      vertex 22.0674 3.83148 5
    endloop
  endfacet
  facet normal 0.156433 -0.987689 0
    outer loop
      vertex 22.5 3.9 5
      vertex 22.0674 3.83148 0
      vertex 22.5 3.9 0
    endloop
  endfacet
  facet normal -0.156434 0.987688 0
    outer loop
      vertex 22.9326 1.16852 0
      vertex 22.5 1.1 5
      vertex 22.9326 1.16852 5
    endloop
  endfacet
  facet normal -0.156434 0.987688 0
    outer loop
      vertex 22.5 1.1 5
      vertex 22.9326 1.16852 0
      vertex 22.5 1.1 0
    endloop
  endfacet
  facet normal -0.707107 -0.707107 0
    outer loop
      vertex 23.6326 3.3229 0
      vertex 23.3229 3.63262 5
      vertex 23.3229 3.63262 0
    endloop
  endfacet
  facet normal -0.707107 -0.707107 0
    outer loop
      vertex 23.3229 3.63262 5
      vertex 23.6326 3.3229 0
      vertex 23.6326 3.3229 5
    endloop
  endfacet
  facet normal -0.891008 -0.453989 0
    outer loop
      vertex 23.8315 2.93262 0
      vertex 23.6326 3.3229 5
      vertex 23.6326 3.3229 0
    endloop
  endfacet
  facet normal -0.891008 -0.453989 0
    outer loop
      vertex 23.6326 3.3229 5
      vertex 23.8315 2.93262 0
      vertex 23.8315 2.93262 5
    endloop
  endfacet
  facet normal -0.45399 -0.891007 0
    outer loop
      vertex 22.9326 3.83148 0
      vertex 23.3229 3.63262 5
      vertex 22.9326 3.83148 5
    endloop
  endfacet
  facet normal -0.45399 -0.891007 -0
    outer loop
      vertex 23.3229 3.63262 5
      vertex 22.9326 3.83148 0
      vertex 23.3229 3.63262 0
    endloop
  endfacet
  facet normal 0.707105 -0.707109 0
    outer loop
      vertex 21.3674 3.3229 0
      vertex 21.6771 3.63262 5
      vertex 21.3674 3.3229 5
    endloop
  endfacet
  facet normal 0.707105 -0.707109 0
    outer loop
      vertex 21.6771 3.63262 5
      vertex 21.3674 3.3229 0
      vertex 21.6771 3.63262 0
    endloop
  endfacet
  facet normal 0.891008 -0.453989 0
    outer loop
      vertex 21.1685 2.93262 5
      vertex 21.3674 3.3229 0
      vertex 21.3674 3.3229 5
    endloop
  endfacet
  facet normal 0.891008 -0.453989 0
    outer loop
      vertex 21.3674 3.3229 0
      vertex 21.1685 2.93262 5
      vertex 21.1685 2.93262 0
    endloop
  endfacet
  facet normal 0.453992 -0.891006 0
    outer loop
      vertex 21.6771 3.63262 0
      vertex 22.0674 3.83148 5
      vertex 21.6771 3.63262 5
    endloop
  endfacet
  facet normal 0.453992 -0.891006 0
    outer loop
      vertex 22.0674 3.83148 5
      vertex 21.6771 3.63262 0
      vertex 22.0674 3.83148 0
    endloop
  endfacet
  facet normal -0.45399 0.891007 0
    outer loop
      vertex 23.3229 1.36738 0
      vertex 22.9326 1.16852 5
      vertex 23.3229 1.36738 5
    endloop
  endfacet
  facet normal -0.45399 0.891007 0
    outer loop
      vertex 22.9326 1.16852 5
      vertex 23.3229 1.36738 0
      vertex 22.9326 1.16852 0
    endloop
  endfacet
  facet normal -0.891008 0.453989 0
    outer loop
      vertex 23.6326 1.6771 0
      vertex 23.8315 2.06738 5
      vertex 23.8315 2.06738 0
    endloop
  endfacet
  facet normal -0.891008 0.453989 0
    outer loop
      vertex 23.8315 2.06738 5
      vertex 23.6326 1.6771 0
      vertex 23.6326 1.6771 5
    endloop
  endfacet
  facet normal 0.453992 0.891006 -0
    outer loop
      vertex 22.0674 1.16852 0
      vertex 21.6771 1.36738 5
      vertex 22.0674 1.16852 5
    endloop
  endfacet
  facet normal 0.453992 0.891006 0
    outer loop
      vertex 21.6771 1.36738 5
      vertex 22.0674 1.16852 0
      vertex 21.6771 1.36738 0
    endloop
  endfacet
  facet normal 0.891008 0.453989 0
    outer loop
      vertex 21.3674 1.6771 5
      vertex 21.1685 2.06738 0
      vertex 21.1685 2.06738 5
    endloop
  endfacet
  facet normal 0.891008 0.453989 0
    outer loop
      vertex 21.1685 2.06738 0
      vertex 21.3674 1.6771 5
      vertex 21.3674 1.6771 0
    endloop
  endfacet
  facet normal -0.156434 -0.987688 0
    outer loop
      vertex 22.5 3.9 0
      vertex 22.9326 3.83148 5
      vertex 22.5 3.9 5
    endloop
  endfacet
  facet normal -0.156434 -0.987688 -0
    outer loop
      vertex 22.9326 3.83148 5
      vertex 22.5 3.9 0
      vertex 22.9326 3.83148 0
    endloop
  endfacet
  facet normal 0.987688 -0.156436 0
    outer loop
      vertex 21.1 2.5 5
      vertex 21.1685 2.93262 0
      vertex 21.1685 2.93262 5
    endloop
  endfacet
  facet normal 0.987688 -0.156436 0
    outer loop
      vertex 21.1685 2.93262 0
      vertex 21.1 2.5 5
      vertex 21.1 2.5 0
    endloop
  endfacet
  facet normal -0.987688 0.156436 0
    outer loop
      vertex 23.8315 2.06738 0
      vertex 23.9 2.5 5
      vertex 23.9 2.5 0
    endloop
  endfacet
  facet normal -0.987688 0.156436 0
    outer loop
      vertex 23.9 2.5 5
      vertex 23.8315 2.06738 0
      vertex 23.8315 2.06738 5
    endloop
  endfacet
  facet normal -0.707107 0.707107 0
    outer loop
      vertex 23.3229 1.36738 0
      vertex 23.6326 1.6771 5
      vertex 23.6326 1.6771 0
    endloop
  endfacet
  facet normal -0.707107 0.707107 0
    outer loop
      vertex 23.6326 1.6771 5
      vertex 23.3229 1.36738 0
      vertex 23.3229 1.36738 5
    endloop
  endfacet
  facet normal 0.156433 0.987689 -0
    outer loop
      vertex 22.5 1.1 0
      vertex 22.0674 1.16852 5
      vertex 22.5 1.1 5
    endloop
  endfacet
  facet normal 0.156433 0.987689 0
    outer loop
      vertex 22.0674 1.16852 5
      vertex 22.5 1.1 0
      vertex 22.0674 1.16852 0
    endloop
  endfacet
  facet normal 0.707105 0.707109 -0
    outer loop
      vertex 21.6771 1.36738 0
      vertex 21.3674 1.6771 5
      vertex 21.6771 1.36738 5
    endloop
  endfacet
  facet normal 0.707105 0.707109 0
    outer loop
      vertex 21.3674 1.6771 5
      vertex 21.6771 1.36738 0
      vertex 21.3674 1.6771 0
    endloop
  endfacet
  facet normal 0.987688 0.156436 0
    outer loop
      vertex 21.1685 2.06738 5
      vertex 21.1 2.5 0
      vertex 21.1 2.5 5
    endloop
  endfacet
  facet normal 0.987688 0.156436 0
    outer loop
      vertex 21.1 2.5 0
      vertex 21.1685 2.06738 5
      vertex 21.1685 2.06738 0
    endloop
  endfacet
  facet normal -0.987688 -0.156436 0
    outer loop
      vertex 23.9 17.5 0
      vertex 23.8315 17.9326 5
      vertex 23.8315 17.9326 0
    endloop
  endfacet
  facet normal -0.987688 -0.156436 0
    outer loop
      vertex 23.8315 17.9326 5
      vertex 23.9 17.5 0
      vertex 23.9 17.5 5
    endloop
  endfacet
  facet normal 0.987688 0.156435 0
    outer loop
      vertex 21.1685 17.0674 5
      vertex 21.1 17.5 0
      vertex 21.1 17.5 5
    endloop
  endfacet
  facet normal 0.987688 0.156435 0
    outer loop
      vertex 21.1 17.5 0
      vertex 21.1685 17.0674 5
      vertex 21.1685 17.0674 0
    endloop
  endfacet
  facet normal 0.156435 -0.987688 0
    outer loop
      vertex 22.0674 18.8315 0
      vertex 22.5 18.9 5
      vertex 22.0674 18.8315 5
    endloop
  endfacet
  facet normal 0.156435 -0.987688 0
    outer loop
      vertex 22.5 18.9 5
      vertex 22.0674 18.8315 0
      vertex 22.5 18.9 0
    endloop
  endfacet
  facet normal -0.156436 0.987688 0
    outer loop
      vertex 22.9326 16.1685 0
      vertex 22.5 16.1 5
      vertex 22.9326 16.1685 5
    endloop
  endfacet
  facet normal -0.156436 0.987688 0
    outer loop
      vertex 22.5 16.1 5
      vertex 22.9326 16.1685 0
      vertex 22.5 16.1 0
    endloop
  endfacet
  facet normal -0.707107 -0.707107 0
    outer loop
      vertex 23.6326 18.3229 0
      vertex 23.3229 18.6326 5
      vertex 23.3229 18.6326 0
    endloop
  endfacet
  facet normal -0.707107 -0.707107 0
    outer loop
      vertex 23.3229 18.6326 5
      vertex 23.6326 18.3229 0
      vertex 23.6326 18.3229 5
    endloop
  endfacet
  facet normal -0.891008 -0.453989 0
    outer loop
      vertex 23.8315 17.9326 0
      vertex 23.6326 18.3229 5
      vertex 23.6326 18.3229 0
    endloop
  endfacet
  facet normal -0.891008 -0.453989 0
    outer loop
      vertex 23.6326 18.3229 5
      vertex 23.8315 17.9326 0
      vertex 23.8315 17.9326 5
    endloop
  endfacet
  facet normal -0.453989 -0.891008 0
    outer loop
      vertex 22.9326 18.8315 0
      vertex 23.3229 18.6326 5
      vertex 22.9326 18.8315 5
    endloop
  endfacet
  facet normal -0.453989 -0.891008 -0
    outer loop
      vertex 23.3229 18.6326 5
      vertex 22.9326 18.8315 0
      vertex 23.3229 18.6326 0
    endloop
  endfacet
  facet normal 0.707105 -0.707109 0
    outer loop
      vertex 21.3674 18.3229 0
      vertex 21.6771 18.6326 5
      vertex 21.3674 18.3229 5
    endloop
  endfacet
  facet normal 0.707105 -0.707109 0
    outer loop
      vertex 21.6771 18.6326 5
      vertex 21.3674 18.3229 0
      vertex 21.6771 18.6326 0
    endloop
  endfacet
  facet normal 0.891008 -0.453989 0
    outer loop
      vertex 21.1685 17.9326 5
      vertex 21.3674 18.3229 0
      vertex 21.3674 18.3229 5
    endloop
  endfacet
  facet normal 0.891008 -0.453989 0
    outer loop
      vertex 21.3674 18.3229 0
      vertex 21.1685 17.9326 5
      vertex 21.1685 17.9326 0
    endloop
  endfacet
  facet normal 0.45399 -0.891007 0
    outer loop
      vertex 21.6771 18.6326 0
      vertex 22.0674 18.8315 5
      vertex 21.6771 18.6326 5
    endloop
  endfacet
  facet normal 0.45399 -0.891007 0
    outer loop
      vertex 22.0674 18.8315 5
      vertex 21.6771 18.6326 0
      vertex 22.0674 18.8315 0
    endloop
  endfacet
  facet normal -0.453989 0.891008 0
    outer loop
      vertex 23.3229 16.3674 0
      vertex 22.9326 16.1685 5
      vertex 23.3229 16.3674 5
    endloop
  endfacet
  facet normal -0.453989 0.891008 0
    outer loop
      vertex 22.9326 16.1685 5
      vertex 23.3229 16.3674 0
      vertex 22.9326 16.1685 0
    endloop
  endfacet
  facet normal -0.891007 0.45399 0
    outer loop
      vertex 23.6326 16.6771 0
      vertex 23.8315 17.0674 5
      vertex 23.8315 17.0674 0
    endloop
  endfacet
  facet normal -0.891007 0.45399 0
    outer loop
      vertex 23.8315 17.0674 5
      vertex 23.6326 16.6771 0
      vertex 23.6326 16.6771 5
    endloop
  endfacet
  facet normal 0.45399 0.891007 -0
    outer loop
      vertex 22.0674 16.1685 0
      vertex 21.6771 16.3674 5
      vertex 22.0674 16.1685 5
    endloop
  endfacet
  facet normal 0.45399 0.891007 0
    outer loop
      vertex 21.6771 16.3674 5
      vertex 22.0674 16.1685 0
      vertex 21.6771 16.3674 0
    endloop
  endfacet
  facet normal 0.891007 0.45399 0
    outer loop
      vertex 21.3674 16.6771 5
      vertex 21.1685 17.0674 0
      vertex 21.1685 17.0674 5
    endloop
  endfacet
  facet normal 0.891007 0.45399 0
    outer loop
      vertex 21.1685 17.0674 0
      vertex 21.3674 16.6771 5
      vertex 21.3674 16.6771 0
    endloop
  endfacet
  facet normal -0.156436 -0.987688 0
    outer loop
      vertex 22.5 18.9 0
      vertex 22.9326 18.8315 5
      vertex 22.5 18.9 5
    endloop
  endfacet
  facet normal -0.156436 -0.987688 -0
    outer loop
      vertex 22.9326 18.8315 5
      vertex 22.5 18.9 0
      vertex 22.9326 18.8315 0
    endloop
  endfacet
  facet normal 0.987688 -0.156436 0
    outer loop
      vertex 21.1 17.5 5
      vertex 21.1685 17.9326 0
      vertex 21.1685 17.9326 5
    endloop
  endfacet
  facet normal 0.987688 -0.156436 0
    outer loop
      vertex 21.1685 17.9326 0
      vertex 21.1 17.5 5
      vertex 21.1 17.5 0
    endloop
  endfacet
  facet normal -0.987688 0.156435 0
    outer loop
      vertex 23.8315 17.0674 0
      vertex 23.9 17.5 5
      vertex 23.9 17.5 0
    endloop
  endfacet
  facet normal -0.987688 0.156435 0
    outer loop
      vertex 23.9 17.5 5
      vertex 23.8315 17.0674 0
      vertex 23.8315 17.0674 5
    endloop
  endfacet
  facet normal -0.707109 0.707105 0
    outer loop
      vertex 23.3229 16.3674 0
      vertex 23.6326 16.6771 5
      vertex 23.6326 16.6771 0
    endloop
  endfacet
  facet normal -0.707109 0.707105 0
    outer loop
      vertex 23.6326 16.6771 5
      vertex 23.3229 16.3674 0
      vertex 23.3229 16.3674 5
    endloop
  endfacet
  facet normal 0.156435 0.987688 -0
    outer loop
      vertex 22.5 16.1 0
      vertex 22.0674 16.1685 5
      vertex 22.5 16.1 5
    endloop
  endfacet
  facet normal 0.156435 0.987688 0
    outer loop
      vertex 22.0674 16.1685 5
      vertex 22.5 16.1 0
      vertex 22.0674 16.1685 0
    endloop
  endfacet
  facet normal 0.707107 0.707107 0
    outer loop
      vertex 21.6771 16.3674 5
      vertex 21.3674 16.6771 0
      vertex 21.3674 16.6771 5
    endloop
  endfacet
  facet normal 0.707107 0.707107 0
    outer loop
      vertex 21.3674 16.6771 0
      vertex 21.6771 16.3674 5
      vertex 21.6771 16.3674 0
    endloop
  endfacet
  facet normal -1 0 0
    outer loop
      vertex 0 0 0
      vertex 0 20 5
      vertex 0 20 0
    endloop
  endfacet
  facet normal -1 -0 0
    outer loop
      vertex 0 20 5
      vertex 0 0 0
      vertex 0 0 5
    endloop
  endfacet
  facet normal 0 0 1
    outer loop
      vertex 21.3674 16.6771 5
      vertex 3.63262 16.6771 5
      vertex 21.3674 3.3229 5
    endloop
  endfacet
  facet normal 0 0 1
    outer loop
      vertex 21.3674 3.3229 5
      vertex 3.83148 2.93262 5
      vertex 3.9 2.5 5
    endloop
  endfacet
  facet normal 0 0 1
    outer loop
      vertex 3.63262 3.3229 5
      vertex 21.3674 3.3229 5
      vertex 3.63262 16.6771 5
    endloop
  endfacet
  facet normal 0 0 1
    outer loop
      vertex 21.3674 3.3229 5
      vertex 3.63262 3.3229 5
      vertex 3.83148 2.93262 5
    endloop
  endfacet
  facet normal -0 0 1
    outer loop
      vertex 3.3229 16.3674 5
      vertex 3.63262 3.3229 5
      vertex 3.63262 16.6771 5
    endloop
  endfacet
  facet normal 0 0 1
    outer loop
      vertex 3.3229 16.3674 5
      vertex 3.3229 3.63262 5
      vertex 3.63262 3.3229 5
    endloop
  endfacet
  facet normal -0 0 1
    outer loop
      vertex 2.93262 16.1685 5
      vertex 3.3229 3.63262 5
      vertex 3.3229 16.3674 5
    endloop
  endfacet
  facet normal 0 0 1
    outer loop
      vertex 2.93262 16.1685 5
      vertex 2.93262 3.83148 5
      vertex 3.3229 3.63262 5
    endloop
  endfacet
  facet normal -0 0 1
    outer loop
      vertex 2.5 16.1 5
      vertex 2.93262 3.83148 5
      vertex 2.93262 16.1685 5
    endloop
  endfacet
  facet normal 0 0 1
    outer loop
      vertex 2.5 16.1 5
      vertex 2.5 3.9 5
      vertex 2.93262 3.83148 5
    endloop
  endfacet
  facet normal 0 0 1
    outer loop
      vertex 2.06738 16.1685 5
      vertex 2.5 3.9 5
      vertex 2.5 16.1 5
    endloop
  endfacet
  facet normal 0 0 1
    outer loop
      vertex 2.06738 16.1685 5
      vertex 2.06738 3.83148 5
      vertex 2.5 3.9 5
    endloop
  endfacet
  facet normal 0 0 1
    outer loop
      vertex 1.6771 16.3674 5
      vertex 2.06738 3.83148 5
      vertex 2.06738 16.1685 5
    endloop
  endfacet
  facet normal 0 0 1
    outer loop
      vertex 1.6771 16.3674 5
      vertex 1.6771 3.63262 5
      vertex 2.06738 3.83148 5
    endloop
  endfacet
  facet normal 0 0 1
    outer loop
      vertex 1.36738 16.6771 5
      vertex 1.6771 3.63262 5
      vertex 1.6771 16.3674 5
    endloop
  endfacet
  facet normal 0 0 1
    outer loop
      vertex 1.36738 16.6771 5
      vertex 1.36738 3.3229 5
      vertex 1.6771 3.63262 5
    endloop
  endfacet
  facet normal 0 0 1
    outer loop
      vertex 1.16852 17.0674 5
      vertex 1.36738 3.3229 5
      vertex 1.36738 16.6771 5
    endloop
  endfacet
  facet normal 0 0 1
    outer loop
      vertex 1.16852 17.0674 5
      vertex 1.16852 2.93262 5
      vertex 1.36738 3.3229 5
    endloop
  endfacet
  facet normal 0 0 1
    outer loop
      vertex 0 20 5
      vertex 1.16852 17.0674 5
      vertex 1.1 17.5 5
    endloop
  endfacet
  facet normal 0 0 1
    outer loop
      vertex 1.16852 17.0674 5
      vertex 0 20 5
      vertex 1.16852 2.93262 5
    endloop
  endfacet
  facet normal -0 0 1
    outer loop
      vertex 23.8315 2.93262 5
      vertex 25 0 5
      vertex 23.8315 17.0674 5
    endloop
  endfacet
  facet normal 0 0 1
    outer loop
      vertex 25 0 5
      vertex 23.8315 2.93262 5
      vertex 23.9 2.5 5
    endloop
  endfacet
  facet normal -0 0 1
    outer loop
      vertex 23.6326 16.6771 5
      vertex 23.8315 2.93262 5
      vertex 23.8315 17.0674 5
    endloop
  endfacet
  facet normal 0 0 1
    outer loop
      vertex 23.6326 16.6771 5
      vertex 23.6326 3.3229 5
      vertex 23.8315 2.93262 5
    endloop
  endfacet
  facet normal -0 0 1
    outer loop
      vertex 23.3229 16.3674 5
      vertex 23.6326 3.3229 5
      vertex 23.6326 16.6771 5
    endloop
  endfacet
  facet normal 0 0 1
    outer loop
      vertex 23.3229 16.3674 5
      vertex 23.3229 3.63262 5
      vertex 23.6326 3.3229 5
    endloop
  endfacet
  facet normal -0 0 1
    outer loop
      vertex 22.9326 16.1685 5
      vertex 23.3229 3.63262 5
      vertex 23.3229 16.3674 5
    endloop
  endfacet
  facet normal 0 0 1
    outer loop
      vertex 22.9326 16.1685 5
      vertex 22.9326 3.83148 5
      vertex 23.3229 3.63262 5
    endloop
  endfacet
  facet normal -0 0 1
    outer loop
      vertex 22.5 16.1 5
      vertex 22.9326 3.83148 5
      vertex 22.9326 16.1685 5
    endloop
  endfacet
  facet normal 0 0 1
    outer loop
      vertex 22.5 16.1 5
      vertex 22.5 3.9 5
      vertex 22.9326 3.83148 5
    endloop
  endfacet
  facet normal 0 0 1
    outer loop
      vertex 22.0674 16.1685 5
      vertex 22.5 3.9 5
      vertex 22.5 16.1 5
    endloop
  endfacet
  facet normal 0 0 1
    outer loop
      vertex 22.0674 16.1685 5
      vertex 22.0674 3.83148 5
      vertex 22.5 3.9 5
    endloop
  endfacet
  facet normal 0 0 1
    outer loop
      vertex 21.6771 16.3674 5
      vertex 22.0674 3.83148 5
      vertex 22.0674 16.1685 5
    endloop
  endfacet
  facet normal 0 0 1
    outer loop
      vertex 21.6771 16.3674 5
      vertex 21.6771 3.63262 5
      vertex 22.0674 3.83148 5
    endloop
  endfacet
  facet normal 0 0 1
    outer loop
      vertex 21.3674 16.6771 5
      vertex 21.6771 3.63262 5
      vertex 21.6771 16.3674 5
    endloop
  endfacet
  facet normal 0 0 1
    outer loop
      vertex 21.3674 16.6771 5
      vertex 21.3674 3.3229 5
      vertex 21.6771 3.63262 5
    endloop
  endfacet
  facet normal 0 0 1
    outer loop
      vertex 3.83148 17.0674 5
      vertex 21.1685 17.0674 5
      vertex 3.9 17.5 5
    endloop
  endfacet
  facet normal 0 0 1
    outer loop
      vertex 21.1685 17.0674 5
      vertex 3.83148 17.0674 5
      vertex 21.3674 16.6771 5
    endloop
  endfacet
  facet normal -0 0 1
    outer loop
      vertex 3.9 17.5 5
      vertex 21.1685 17.0674 5
      vertex 21.1 17.5 5
    endloop
  endfacet
  facet normal 0 0 1
    outer loop
      vertex 3.63262 16.6771 5
      vertex 21.3674 16.6771 5
      vertex 3.83148 17.0674 5
    endloop
  endfacet
  facet normal 0 0 1
    outer loop
      vertex 23.8315 17.0674 5
      vertex 25 20 5
      vertex 23.9 17.5 5
    endloop
  endfacet
  facet normal 0 0 1
    outer loop
      vertex 25 20 5
      vertex 23.8315 17.9326 5
      vertex 23.9 17.5 5
    endloop
  endfacet
  facet normal 0 0 1
    outer loop
      vertex 25 20 5
      vertex 23.6326 18.3229 5
      vertex 23.8315 17.9326 5
    endloop
  endfacet
  facet normal 0 0 1
    outer loop
      vertex 25 20 5
      vertex 23.3229 18.6326 5
      vertex 23.6326 18.3229 5
    endloop
  endfacet
  facet normal 0 0 1
    outer loop
      vertex 25 20 5
      vertex 22.9326 18.8315 5
      vertex 23.3229 18.6326 5
    endloop
  endfacet
  facet normal 0 0 1
    outer loop
      vertex 25 20 5
      vertex 22.5 18.9 5
      vertex 22.9326 18.8315 5
    endloop
  endfacet
  facet normal 0 0 1
    outer loop
      vertex 25 20 5
      vertex 22.0674 18.8315 5
      vertex 22.5 18.9 5
    endloop
  endfacet
  facet normal 0 0 1
    outer loop
      vertex 21.3674 3.3229 5
      vertex 3.9 2.5 5
      vertex 21.1685 2.93262 5
    endloop
  endfacet
  facet normal 0 0 1
    outer loop
      vertex 21.1685 17.9326 5
      vertex 3.9 17.5 5
      vertex 21.1 17.5 5
    endloop
  endfacet
  facet normal 0 0 1
    outer loop
      vertex 3.83148 17.9326 5
      vertex 21.1685 17.9326 5
      vertex 21.3674 18.3229 5
    endloop
  endfacet
  facet normal 0 0 1
    outer loop
      vertex 3.63262 18.3229 5
      vertex 21.3674 18.3229 5
      vertex 21.6771 18.6326 5
    endloop
  endfacet
  facet normal 0 0 1
    outer loop
      vertex 3.3229 18.6326 5
      vertex 21.6771 18.6326 5
      vertex 22.0674 18.8315 5
    endloop
  endfacet
  facet normal 0 0 1
    outer loop
      vertex 2.93262 18.8315 5
      vertex 22.0674 18.8315 5
      vertex 25 20 5
    endloop
  endfacet
  facet normal 0 0 1
    outer loop
      vertex 21.1685 17.9326 5
      vertex 3.83148 17.9326 5
      vertex 3.9 17.5 5
    endloop
  endfacet
  facet normal 0 0 1
    outer loop
      vertex 21.3674 18.3229 5
      vertex 3.63262 18.3229 5
      vertex 3.83148 17.9326 5
    endloop
  endfacet
  facet normal 0 0 1
    outer loop
      vertex 21.6771 18.6326 5
      vertex 3.3229 18.6326 5
      vertex 3.63262 18.3229 5
    endloop
  endfacet
  facet normal 0 0 1
    outer loop
      vertex 22.0674 18.8315 5
      vertex 2.93262 18.8315 5
      vertex 3.3229 18.6326 5
    endloop
  endfacet
  facet normal -0 0 1
    outer loop
      vertex 0 20 5
      vertex 2.93262 18.8315 5
      vertex 25 20 5
    endloop
  endfacet
  facet normal 0 0 1
    outer loop
      vertex 0 0 5
      vertex 1.16852 2.93262 5
      vertex 0 20 5
    endloop
  endfacet
  facet normal 0 0 1
    outer loop
      vertex 1.16852 17.9326 5
      vertex 0 20 5
      vertex 1.1 17.5 5
    endloop
  endfacet
  facet normal 0 0 1
    outer loop
      vertex 1.36738 18.3229 5
      vertex 0 20 5
      vertex 1.16852 17.9326 5
    endloop
  endfacet
  facet normal 0 0 1
    outer loop
      vertex 1.6771 18.6326 5
      vertex 0 20 5
      vertex 1.36738 18.3229 5
    endloop
  endfacet
  facet normal 0 0 1
    outer loop
      vertex 2.06738 18.8315 5
      vertex 0 20 5
      vertex 1.6771 18.6326 5
    endloop
  endfacet
  facet normal 0 0 1
    outer loop
      vertex 2.5 18.9 5
      vertex 0 20 5
      vertex 2.06738 18.8315 5
    endloop
  endfacet
  facet normal 0 0 1
    outer loop
      vertex 2.93262 18.8315 5
      vertex 0 20 5
      vertex 2.5 18.9 5
    endloop
  endfacet
  facet normal 0 0 1
    outer loop
      vertex 25 20 5
      vertex 23.8315 17.0674 5
      vertex 25 0 5
    endloop
  endfacet
  facet normal -0 0 1
    outer loop
      vertex 23.8315 2.06738 5
      vertex 25 0 5
      vertex 23.9 2.5 5
    endloop
  endfacet
  facet normal -0 0 1
    outer loop
      vertex 23.6326 1.6771 5
      vertex 25 0 5
      vertex 23.8315 2.06738 5
    endloop
  endfacet
  facet normal -0 0 1
    outer loop
      vertex 23.3229 1.36738 5
      vertex 25 0 5
      vertex 23.6326 1.6771 5
    endloop
  endfacet
  facet normal -0 0 1
    outer loop
      vertex 22.9326 1.16852 5
      vertex 25 0 5
      vertex 23.3229 1.36738 5
    endloop
  endfacet
  facet normal -0 0 1
    outer loop
      vertex 22.5 1.1 5
      vertex 25 0 5
      vertex 22.9326 1.16852 5
    endloop
  endfacet
  facet normal 0 0 1
    outer loop
      vertex 22.0674 1.16852 5
      vertex 25 0 5
      vertex 22.5 1.1 5
    endloop
  endfacet
  facet normal 0 0 1
    outer loop
      vertex 21.1685 2.93262 5
      vertex 3.9 2.5 5
      vertex 21.1 2.5 5
    endloop
  endfacet
  facet normal 0 0 1
    outer loop
      vertex 21.1 2.5 5
      vertex 3.9 2.5 5
      vertex 21.1685 2.06738 5
    endloop
  endfacet
  facet normal 0 0 1
    outer loop
      vertex 3.83148 2.06738 5
      vertex 21.1685 2.06738 5
      vertex 3.9 2.5 5
    endloop
  endfacet
  facet normal 0 0 1
    outer loop
      vertex 21.1685 2.06738 5
      vertex 3.83148 2.06738 5
      vertex 21.3674 1.6771 5
    endloop
  endfacet
  facet normal 0 0 1
    outer loop
      vertex 3.63262 1.6771 5
      vertex 21.3674 1.6771 5
      vertex 3.83148 2.06738 5
    endloop
  endfacet
  facet normal 0 0 1
    outer loop
      vertex 21.3674 1.6771 5
      vertex 3.63262 1.6771 5
      vertex 21.6771 1.36738 5
    endloop
  endfacet
  facet normal 0 0 1
    outer loop
      vertex 3.3229 1.36738 5
      vertex 21.6771 1.36738 5
      vertex 3.63262 1.6771 5
    endloop
  endfacet
  facet normal 0 0 1
    outer loop
      vertex 21.6771 1.36738 5
      vertex 3.3229 1.36738 5
      vertex 22.0674 1.16852 5
    endloop
  endfacet
  facet normal 0 0 1
    outer loop
      vertex 2.93262 1.16852 5
      vertex 22.0674 1.16852 5
      vertex 3.3229 1.36738 5
    endloop
  endfacet
  facet normal 0 0 1
    outer loop
      vertex 22.0674 1.16852 5
      vertex 2.93262 1.16852 5
      vertex 25 0 5
    endloop
  endfacet
  facet normal 0 0 1
    outer loop
      vertex 0 0 5
      vertex 2.93262 1.16852 5
      vertex 2.5 1.1 5
    endloop
  endfacet
  facet normal 0 0 1
    outer loop
      vertex 2.93262 1.16852 5
      vertex 0 0 5
      vertex 25 0 5
    endloop
  endfacet
  facet normal 0 0 1
    outer loop
      vertex 2.06738 1.16852 5
      vertex 0 0 5
      vertex 2.5 1.1 5
    endloop
  endfacet
  facet normal 0 0 1
    outer loop
      vertex 1.6771 1.36738 5
      vertex 0 0 5
      vertex 2.06738 1.16852 5
    endloop
  endfacet
  facet normal 0 0 1
    outer loop
      vertex 1.36738 1.6771 5
      vertex 0 0 5
      vertex 1.6771 1.36738 5
    endloop
  endfacet
  facet normal 0 0 1
    outer loop
      vertex 1.16852 2.06738 5
      vertex 0 0 5
      vertex 1.36738 1.6771 5
    endloop
  endfacet
  facet normal 0 0 1
    outer loop
      vertex 1.1 2.5 5
      vertex 0 0 5
      vertex 1.16852 2.06738 5
    endloop
  endfacet
  facet normal 0 0 1
    outer loop
      vertex 1.16852 2.93262 5
      vertex 0 0 5
      vertex 1.1 2.5 5
    endloop
  endfacet
  facet normal 1 -0 0
    outer loop
      vertex 25 0 5
      vertex 25 20 0
      vertex 25 20 5
    endloop
  endfacet
  facet normal 1 0 0
    outer loop
      vertex 25 20 0
      vertex 25 0 5
      vertex 25 0 0
    endloop
  endfacet
  facet normal 0 1 -0
    outer loop
      vertex 25 20 0
      vertex 0 20 5
      vertex 25 20 5
    endloop
  endfacet
  facet normal 0 1 0
    outer loop
      vertex 0 20 5
      vertex 25 20 0
      vertex 0 20 0
    endloop
  endfacet
  facet normal 0 0 -1
    outer loop
      vertex 21.3674 3.3229 0
      vertex 3.63262 3.3229 0
      vertex 21.3674 16.6771 0
    endloop
  endfacet
  facet normal 0 0 -1
    outer loop
      vertex 21.3674 16.6771 0
      vertex 3.83148 17.0674 0
      vertex 3.9 17.5 0
    endloop
  endfacet
  facet normal 0 0 -1
    outer loop
      vertex 3.63262 16.6771 0
      vertex 21.3674 16.6771 0
      vertex 3.63262 3.3229 0
    endloop
  endfacet
  facet normal 0 0 -1
    outer loop
      vertex 21.3674 16.6771 0
      vertex 3.63262 16.6771 0
      vertex 3.83148 17.0674 0
    endloop
  endfacet
  facet normal 0 0 -1
    outer loop
      vertex 3.3229 3.63262 0
      vertex 3.63262 16.6771 0
      vertex 3.63262 3.3229 0
    endloop
  endfacet
  facet normal 0 0 -1
    outer loop
      vertex 3.3229 3.63262 0
      vertex 3.3229 16.3674 0
      vertex 3.63262 16.6771 0
    endloop
  endfacet
  facet normal 0 0 -1
    outer loop
      vertex 2.93262 3.83148 0
      vertex 3.3229 16.3674 0
      vertex 3.3229 3.63262 0
    endloop
  endfacet
  facet normal 0 0 -1
    outer loop
      vertex 2.93262 3.83148 0
      vertex 2.93262 16.1685 0
      vertex 3.3229 16.3674 0
    endloop
  endfacet
  facet normal 0 0 -1
    outer loop
      vertex 2.5 3.9 0
      vertex 2.93262 16.1685 0
      vertex 2.93262 3.83148 0
    endloop
  endfacet
  facet normal 0 0 -1
    outer loop
      vertex 2.5 3.9 0
      vertex 2.5 16.1 0
      vertex 2.93262 16.1685 0
    endloop
  endfacet
  facet normal 0 0 -1
    outer loop
      vertex 2.06738 3.83148 0
      vertex 2.5 16.1 0
      vertex 2.5 3.9 0
    endloop
  endfacet
  facet normal 0 0 -1
    outer loop
      vertex 2.06738 3.83148 0
      vertex 2.06738 16.1685 0
      vertex 2.5 16.1 0
    endloop
  endfacet
  facet normal 0 0 -1
    outer loop
      vertex 1.6771 3.63262 0
      vertex 2.06738 16.1685 0
      vertex 2.06738 3.83148 0
    endloop
  endfacet
  facet normal 0 0 -1
    outer loop
      vertex 1.6771 3.63262 0
      vertex 1.6771 16.3674 0
      vertex 2.06738 16.1685 0
    endloop
  endfacet
  facet normal 0 0 -1
    outer loop
      vertex 1.36738 3.3229 0
      vertex 1.6771 16.3674 0
      vertex 1.6771 3.63262 0
    endloop
  endfacet
  facet normal 0 0 -1
    outer loop
      vertex 1.36738 3.3229 0
      vertex 1.36738 16.6771 0
      vertex 1.6771 16.3674 0
    endloop
  endfacet
  facet normal 0 0 -1
    outer loop
      vertex 1.16852 2.93262 0
      vertex 1.36738 16.6771 0
      vertex 1.36738 3.3229 0
    endloop
  endfacet
  facet normal 0 0 -1
    outer loop
      vertex 1.16852 2.93262 0
      vertex 1.16852 17.0674 0
      vertex 1.36738 16.6771 0
    endloop
  endfacet
  facet normal 0 0 -1
    outer loop
      vertex 0 0 0
      vertex 1.16852 2.93262 0
      vertex 1.1 2.5 0
    endloop
  endfacet
  facet normal -0 0 -1
    outer loop
      vertex 1.16852 2.93262 0
      vertex 0 0 0
      vertex 1.16852 17.0674 0
    endloop
  endfacet
  facet normal 0 0 -1
    outer loop
      vertex 23.8315 17.0674 0
      vertex 25 20 0
      vertex 23.8315 2.93262 0
    endloop
  endfacet
  facet normal 0 0 -1
    outer loop
      vertex 25 20 0
      vertex 23.8315 17.0674 0
      vertex 23.9 17.5 0
    endloop
  endfacet
  facet normal 0 0 -1
    outer loop
      vertex 23.6326 3.3229 0
      vertex 23.8315 17.0674 0
      vertex 23.8315 2.93262 0
    endloop
  endfacet
  facet normal 0 0 -1
    outer loop
      vertex 23.6326 3.3229 0
      vertex 23.6326 16.6771 0
      vertex 23.8315 17.0674 0
    endloop
  endfacet
  facet normal 0 0 -1
    outer loop
      vertex 23.3229 3.63262 0
      vertex 23.6326 16.6771 0
      vertex 23.6326 3.3229 0
    endloop
  endfacet
  facet normal 0 0 -1
    outer loop
      vertex 23.3229 3.63262 0
      vertex 23.3229 16.3674 0
      vertex 23.6326 16.6771 0
    endloop
  endfacet
  facet normal 0 0 -1
    outer loop
      vertex 22.9326 3.83148 0
      vertex 23.3229 16.3674 0
      vertex 23.3229 3.63262 0
    endloop
  endfacet
  facet normal 0 0 -1
    outer loop
      vertex 22.9326 3.83148 0
      vertex 22.9326 16.1685 0
      vertex 23.3229 16.3674 0
    endloop
  endfacet
  facet normal 0 0 -1
    outer loop
      vertex 22.5 3.9 0
      vertex 22.9326 16.1685 0
      vertex 22.9326 3.83148 0
    endloop
  endfacet
  facet normal 0 0 -1
    outer loop
      vertex 22.5 3.9 0
      vertex 22.5 16.1 0
      vertex 22.9326 16.1685 0
    endloop
  endfacet
  facet normal 0 0 -1
    outer loop
      vertex 22.0674 3.83148 0
      vertex 22.5 16.1 0
      vertex 22.5 3.9 0
    endloop
  endfacet
  facet normal 0 0 -1
    outer loop
      vertex 22.0674 3.83148 0
      vertex 22.0674 16.1685 0
      vertex 22.5 16.1 0
    endloop
  endfacet
  facet normal 0 0 -1
    outer loop
      vertex 21.6771 3.63262 0
      vertex 22.0674 16.1685 0
      vertex 22.0674 3.83148 0
    endloop
  endfacet
  facet normal 0 0 -1
    outer loop
      vertex 21.6771 3.63262 0
      vertex 21.6771 16.3674 0
      vertex 22.0674 16.1685 0
    endloop
  endfacet
  facet normal 0 0 -1
    outer loop
      vertex 21.3674 3.3229 0
      vertex 21.6771 16.3674 0
      vertex 21.6771 3.63262 0
    endloop
  endfacet
  facet normal 0 0 -1
    outer loop
      vertex 21.3674 3.3229 0
      vertex 21.3674 16.6771 0
      vertex 21.6771 16.3674 0
    endloop
  endfacet
  facet normal 0 0 -1
    outer loop
      vertex 3.83148 2.93262 0
      vertex 21.1685 2.93262 0
      vertex 3.9 2.5 0
    endloop
  endfacet
  facet normal 0 0 -1
    outer loop
      vertex 21.1685 2.93262 0
      vertex 3.83148 2.93262 0
      vertex 21.3674 3.3229 0
    endloop
  endfacet
  facet normal 0 0 -1
    outer loop
      vertex 3.9 2.5 0
      vertex 21.1685 2.93262 0
      vertex 21.1 2.5 0
    endloop
  endfacet
  facet normal 0 0 -1
    outer loop
      vertex 3.63262 3.3229 0
      vertex 21.3674 3.3229 0
      vertex 3.83148 2.93262 0
    endloop
  endfacet
  facet normal 0 0 -1
    outer loop
      vertex 23.8315 2.93262 0
      vertex 25 0 0
      vertex 23.9 2.5 0
    endloop
  endfacet
  facet normal 0 0 -1
    outer loop
      vertex 25 0 0
      vertex 23.8315 2.06738 0
      vertex 23.9 2.5 0
    endloop
  endfacet
  facet normal 0 0 -1
    outer loop
      vertex 25 0 0
      vertex 23.6326 1.6771 0
      vertex 23.8315 2.06738 0
    endloop
  endfacet
  facet normal 0 0 -1
    outer loop
      vertex 25 0 0
      vertex 23.3229 1.36738 0
      vertex 23.6326 1.6771 0
    endloop
  endfacet
  facet normal 0 0 -1
    outer loop
      vertex 25 0 0
      vertex 22.9326 1.16852 0
      vertex 23.3229 1.36738 0
    endloop
  endfacet
  facet normal 0 0 -1
    outer loop
      vertex 25 0 0
      vertex 22.5 1.1 0
      vertex 22.9326 1.16852 0
    endloop
  endfacet
  facet normal 0 0 -1
    outer loop
      vertex 25 0 0
      vertex 22.0674 1.16852 0
      vertex 22.5 1.1 0
    endloop
  endfacet
  facet normal 0 0 -1
    outer loop
      vertex 21.3674 16.6771 0
      vertex 3.9 17.5 0
      vertex 21.1685 17.0674 0
    endloop
  endfacet
  facet normal 0 0 -1
    outer loop
      vertex 21.1685 2.06738 0
      vertex 3.9 2.5 0
      vertex 21.1 2.5 0
    endloop
  endfacet
  facet normal 0 0 -1
    outer loop
      vertex 3.83148 2.06738 0
      vertex 21.1685 2.06738 0
      vertex 21.3674 1.6771 0
    endloop
  endfacet
  facet normal 0 0 -1
    outer loop
      vertex 3.63262 1.6771 0
      vertex 21.3674 1.6771 0
      vertex 21.6771 1.36738 0
    endloop
  endfacet
  facet normal 0 0 -1
    outer loop
      vertex 3.3229 1.36738 0
      vertex 21.6771 1.36738 0
      vertex 22.0674 1.16852 0
    endloop
  endfacet
  facet normal 0 0 -1
    outer loop
      vertex 2.93262 1.16852 0
      vertex 22.0674 1.16852 0
      vertex 25 0 0
    endloop
  endfacet
  facet normal 0 0 -1
    outer loop
      vertex 21.1685 2.06738 0
      vertex 3.83148 2.06738 0
      vertex 3.9 2.5 0
    endloop
  endfacet
  facet normal 0 0 -1
    outer loop
      vertex 21.3674 1.6771 0
      vertex 3.63262 1.6771 0
      vertex 3.83148 2.06738 0
    endloop
  endfacet
  facet normal 0 0 -1
    outer loop
      vertex 21.6771 1.36738 0
      vertex 3.3229 1.36738 0
      vertex 3.63262 1.6771 0
    endloop
  endfacet
  facet normal 0 0 -1
    outer loop
      vertex 22.0674 1.16852 0
      vertex 2.93262 1.16852 0
      vertex 3.3229 1.36738 0
    endloop
  endfacet
  facet normal 0 0 -1
    outer loop
      vertex 0 0 0
      vertex 2.93262 1.16852 0
      vertex 25 0 0
    endloop
  endfacet
  facet normal 0 0 -1
    outer loop
      vertex 0 20 0
      vertex 1.16852 17.0674 0
      vertex 0 0 0
    endloop
  endfacet
  facet normal -0 0 -1
    outer loop
      vertex 1.16852 2.06738 0
      vertex 0 0 0
      vertex 1.1 2.5 0
    endloop
  endfacet
  facet normal -0 0 -1
    outer loop
      vertex 1.36738 1.6771 0
      vertex 0 0 0
      vertex 1.16852 2.06738 0
    endloop
  endfacet
  facet normal -0 0 -1
    outer loop
      vertex 1.6771 1.36738 0
      vertex 0 0 0
      vertex 1.36738 1.6771 0
    endloop
  endfacet
  facet normal -0 0 -1
    outer loop
      vertex 2.06738 1.16852 0
      vertex 0 0 0
      vertex 1.6771 1.36738 0
    endloop
  endfacet
  facet normal -0 0 -1
    outer loop
      vertex 2.5 1.1 0
      vertex 0 0 0
      vertex 2.06738 1.16852 0
    endloop
  endfacet
  facet normal 0 0 -1
    outer loop
      vertex 2.93262 1.16852 0
      vertex 0 0 0
      vertex 2.5 1.1 0
    endloop
  endfacet
  facet normal 0 0 -1
    outer loop
      vertex 25 0 0
      vertex 23.8315 2.93262 0
      vertex 25 20 0
    endloop
  endfacet
  facet normal 0 0 -1
    outer loop
      vertex 23.8315 17.9326 0
      vertex 25 20 0
      vertex 23.9 17.5 0
    endloop
  endfacet
  facet normal 0 0 -1
    outer loop
      vertex 23.6326 18.3229 0
      vertex 25 20 0
      vertex 23.8315 17.9326 0
    endloop
  endfacet
  facet normal 0 0 -1
    outer loop
      vertex 23.3229 18.6326 0
      vertex 25 20 0
      vertex 23.6326 18.3229 0
    endloop
  endfacet
  facet normal 0 0 -1
    outer loop
      vertex 22.9326 18.8315 0
      vertex 25 20 0
      vertex 23.3229 18.6326 0
    endloop
  endfacet
  facet normal 0 0 -1
    outer loop
      vertex 22.5 18.9 0
      vertex 25 20 0
      vertex 22.9326 18.8315 0
    endloop
  endfacet
  facet normal 0 0 -1
    outer loop
      vertex 22.0674 18.8315 0
      vertex 25 20 0
      vertex 22.5 18.9 0
    endloop
  endfacet
  facet normal 0 0 -1
    outer loop
      vertex 21.1685 17.0674 0
      vertex 3.9 17.5 0
      vertex 21.1 17.5 0
    endloop
  endfacet
  facet normal 0 0 -1
    outer loop
      vertex 21.1 17.5 0
      vertex 3.9 17.5 0
      vertex 21.1685 17.9326 0
    endloop
  endfacet
  facet normal 0 0 -1
    outer loop
      vertex 3.83148 17.9326 0
      vertex 21.1685 17.9326 0
      vertex 3.9 17.5 0
    endloop
  endfacet
  facet normal 0 0 -1
    outer loop
      vertex 21.1685 17.9326 0
      vertex 3.83148 17.9326 0
      vertex 21.3674 18.3229 0
    endloop
  endfacet
  facet normal 0 0 -1
    outer loop
      vertex 3.63262 18.3229 0
      vertex 21.3674 18.3229 0
      vertex 3.83148 17.9326 0
    endloop
  endfacet
  facet normal 0 0 -1
    outer loop
      vertex 21.3674 18.3229 0
      vertex 3.63262 18.3229 0
      vertex 21.6771 18.6326 0
    endloop
  endfacet
  facet normal 0 0 -1
    outer loop
      vertex 3.3229 18.6326 0
      vertex 21.6771 18.6326 0
      vertex 3.63262 18.3229 0
    endloop
  endfacet
  facet normal 0 0 -1
    outer loop
      vertex 21.6771 18.6326 0
      vertex 3.3229 18.6326 0
      vertex 22.0674 18.8315 0
    endloop
  endfacet
  facet normal 0 0 -1
    outer loop
      vertex 2.93262 18.8315 0
      vertex 22.0674 18.8315 0
      vertex 3.3229 18.6326 0
    endloop
  endfacet
  facet normal 0 0 -1
    outer loop
      vertex 22.0674 18.8315 0
      vertex 2.93262 18.8315 0
      vertex 25 20 0
    endloop
  endfacet
  facet normal 0 0 -1
    outer loop
      vertex 0 20 0
      vertex 2.93262 18.8315 0
      vertex 2.5 18.9 0
    endloop
  endfacet
  facet normal 0 0 -1
    outer loop
      vertex 2.93262 18.8315 0
      vertex 0 20 0
      vertex 25 20 0
    endloop
  endfacet
  facet normal 0 0 -1
    outer loop
      vertex 2.06738 18.8315 0
      vertex 0 20 0
      vertex 2.5 18.9 0
    endloop
  endfacet
  facet normal 0 0 -1
    outer loop
      vertex 1.6771 18.6326 0
      vertex 0 20 0
      vertex 2.06738 18.8315 0
    endloop
  endfacet
  facet normal 0 0 -1
    outer loop
      vertex 1.36738 18.3229 0
      vertex 0 20 0
      vertex 1.6771 18.6326 0
    endloop
  endfacet
  facet normal 0 0 -1
    outer loop
      vertex 1.16852 17.9326 0
      vertex 0 20 0
      vertex 1.36738 18.3229 0
    endloop
  endfacet
  facet normal 0 0 -1
    outer loop
      vertex 1.1 17.5 0
      vertex 0 20 0
      vertex 1.16852 17.9326 0
    endloop
  endfacet
  facet normal 0 0 -1
    outer loop
      vertex 1.16852 17.0674 0
      vertex 0 20 0
      vertex 1.1 17.5 0
    endloop
  endfacet
  facet normal 0 -1 0
    outer loop
      vertex 0 0 0
      vertex 25 0 5
      vertex 0 0 5
    endloop
  endfacet
  facet normal 0 -1 -0
    outer loop
      vertex 25 0 5
      vertex 0 0 0
      vertex 25 0 0
    endloop
  endfacet
endsolid OpenSCAD_Model
