solid OpenSCAD_Model
  facet normal -0.987689 0 0.156432
    outer loop
      vertex 31.1315 10 15.7174
      vertex 31.2 13 16.15
      vertex 31.1315 13 15.7174
    endloop
  endfacet
  facet normal -0.987689 0 0.156432
    outer loop
      vertex 31.2 13 16.15
      vertex 31.1315 10 15.7174
      vertex 31.2 10 16.15
    endloop
  endfacet
  facet normal 0.987688 -0 0.156436
    outer loop
      vertex 28.4 10 16.15
      vertex 28.4685 13 15.7174
      vertex 28.4 13 16.15
    endloop
  endfacet
  facet normal 0.987688 0 0.156436
    outer loop
      vertex 28.4685 13 15.7174
      vertex 28.4 10 16.15
      vertex 28.4685 10 15.7174
    endloop
  endfacet
  facet normal 0.156434 0 0.987688
    outer loop
      vertex 29.3674 13 14.8185
      vertex 29.8 10 14.75
      vertex 29.8 13 14.75
    endloop
  endfacet
  facet normal 0.156434 0 0.987688
    outer loop
      vertex 29.8 10 14.75
      vertex 29.3674 13 14.8185
      vertex 29.3674 10 14.8185
    endloop
  endfacet
  facet normal -0.156431 0 -0.987689
    outer loop
      vertex 29.8 10 17.55
      vertex 30.2326 13 17.4815
      vertex 30.2326 10 17.4815
    endloop
  endfacet
  facet normal -0.156431 0 -0.987689
    outer loop
      vertex 30.2326 13 17.4815
      vertex 29.8 10 17.55
      vertex 29.8 13 17.55
    endloop
  endfacet
  facet normal -0.453994 0 -0.891005
    outer loop
      vertex 30.2326 10 17.4815
      vertex 30.6229 13 17.2826
      vertex 30.6229 10 17.2826
    endloop
  endfacet
  facet normal -0.453994 0 -0.891005
    outer loop
      vertex 30.6229 13 17.2826
      vertex 30.2326 10 17.4815
      vertex 30.2326 13 17.4815
    endloop
  endfacet
  facet normal -0.453992 0 0.891006
    outer loop
      vertex 30.2326 13 14.8185
      vertex 30.6229 10 15.0174
      vertex 30.6229 13 15.0174
    endloop
  endfacet
  facet normal -0.453992 0 0.891006
    outer loop
      vertex 30.6229 10 15.0174
      vertex 30.2326 13 14.8185
      vertex 30.2326 10 14.8185
    endloop
  endfacet
  facet normal -0.891006 0 0.453992
    outer loop
      vertex 30.9326 10 15.3271
      vertex 31.1315 13 15.7174
      vertex 30.9326 13 15.3271
    endloop
  endfacet
  facet normal -0.891006 0 0.453992
    outer loop
      vertex 31.1315 13 15.7174
      vertex 30.9326 10 15.3271
      vertex 31.1315 10 15.7174
    endloop
  endfacet
  facet normal -0.156433 0 0.987689
    outer loop
      vertex 29.8 13 14.75
      vertex 30.2326 10 14.8185
      vertex 30.2326 13 14.8185
    endloop
  endfacet
  facet normal -0.156433 0 0.987689
    outer loop
      vertex 30.2326 10 14.8185
      vertex 29.8 13 14.75
      vertex 29.8 10 14.75
    endloop
  endfacet
  facet normal 0.707107 -0 0.707107
    outer loop
      vertex 28.6674 10 15.3271
      vertex 28.9771 13 15.0174
      vertex 28.6674 13 15.3271
    endloop
  endfacet
  facet normal 0.707107 0 0.707107
    outer loop
      vertex 28.9771 13 15.0174
      vertex 28.6674 10 15.3271
      vertex 28.9771 10 15.0174
    endloop
  endfacet
  facet normal 0.891008 -0 0.453989
    outer loop
      vertex 28.4685 10 15.7174
      vertex 28.6674 13 15.3271
      vertex 28.4685 13 15.7174
    endloop
  endfacet
  facet normal 0.891008 0 0.453989
    outer loop
      vertex 28.6674 13 15.3271
      vertex 28.4685 10 15.7174
      vertex 28.6674 10 15.3271
    endloop
  endfacet
  facet normal 0.45399 0 0.891007
    outer loop
      vertex 28.9771 13 15.0174
      vertex 29.3674 10 14.8185
      vertex 29.3674 13 14.8185
    endloop
  endfacet
  facet normal 0.45399 0 0.891007
    outer loop
      vertex 29.3674 10 14.8185
      vertex 28.9771 13 15.0174
      vertex 28.9771 10 15.0174
    endloop
  endfacet
  facet normal 0 -1 0
    outer loop
      vertex 31.5096 10 21.1406
      vertex 29.3674 10 17.4815
      vertex 29.8 10 17.55
    endloop
  endfacet
  facet normal 0 -1 0
    outer loop
      vertex 20.1951 10 19.0889
      vertex 28.9771 10 17.2826
      vertex 29.3674 10 17.4815
    endloop
  endfacet
  facet normal 0 -1 0
    outer loop
      vertex 20.1951 10 19.0889
      vertex 28.6674 10 16.9729
      vertex 28.9771 10 17.2826
    endloop
  endfacet
  facet normal 0 -1 0
    outer loop
      vertex 20.9053 10 17.6951
      vertex 28.4685 10 16.5826
      vertex 28.6674 10 16.9729
    endloop
  endfacet
  facet normal 0 -1 0
    outer loop
      vertex 21.15 10 16.15
      vertex 28.4685 10 16.5826
      vertex 20.9053 10 17.6951
    endloop
  endfacet
  facet normal 0 -1 0
    outer loop
      vertex 21.15 10 16.15
      vertex 28.4 10 16.15
      vertex 28.4685 10 16.5826
    endloop
  endfacet
  facet normal 0 -1 0
    outer loop
      vertex 21.15 10 16.15
      vertex 28.4685 10 15.7174
      vertex 28.4 10 16.15
    endloop
  endfacet
  facet normal 0 -1 0
    outer loop
      vertex 20.9053 10 14.6049
      vertex 28.4685 10 15.7174
      vertex 21.15 10 16.15
    endloop
  endfacet
  facet normal 0 -1 -0
    outer loop
      vertex 28.4685 10 15.7174
      vertex 20.9053 10 14.6049
      vertex 28.6674 10 15.3271
    endloop
  endfacet
  facet normal 0 -1 0
    outer loop
      vertex 20.1951 10 13.2111
      vertex 28.6674 10 15.3271
      vertex 20.9053 10 14.6049
    endloop
  endfacet
  facet normal 0 -1 0
    outer loop
      vertex 29.2156 10 6.65727
      vertex 28.9771 10 15.0174
      vertex 20.1951 10 13.2111
    endloop
  endfacet
  facet normal 0 -1 -0
    outer loop
      vertex 28.6674 10 15.3271
      vertex 20.1951 10 13.2111
      vertex 28.9771 10 15.0174
    endloop
  endfacet
  facet normal 0 -1 0
    outer loop
      vertex 16.15 10 21.15
      vertex 16.15 10 32.3
      vertex 11.1594 10 31.5096
    endloop
  endfacet
  facet normal 0 -1 0
    outer loop
      vertex 14.6049 10 20.9053
      vertex 11.1594 10 31.5096
      vertex 6.65727 10 29.2156
    endloop
  endfacet
  facet normal 0 -1 0
    outer loop
      vertex 16.15 10 32.3
      vertex 16.15 10 21.15
      vertex 21.1406 10 31.5096
    endloop
  endfacet
  facet normal 0 -1 0
    outer loop
      vertex 13.2111 10 20.1951
      vertex 6.65727 10 29.2156
      vertex 3.08438 10 25.6427
    endloop
  endfacet
  facet normal 0 -1 0
    outer loop
      vertex 17.6951 10 20.9053
      vertex 21.1406 10 31.5096
      vertex 16.15 10 21.15
    endloop
  endfacet
  facet normal 0 -1 -0
    outer loop
      vertex 21.1406 10 31.5096
      vertex 17.6951 10 20.9053
      vertex 25.6427 10 29.2156
    endloop
  endfacet
  facet normal 0 -1 0
    outer loop
      vertex 3.3229 10 17.2826
      vertex 3.08438 10 25.6427
      vertex 0.790438 10 21.1406
    endloop
  endfacet
  facet normal 0 -1 0
    outer loop
      vertex 11.1594 10 31.5096
      vertex 14.6049 10 20.9053
      vertex 16.15 10 21.15
    endloop
  endfacet
  facet normal 0 -1 0
    outer loop
      vertex 6.65727 10 29.2156
      vertex 13.2111 10 20.1951
      vertex 14.6049 10 20.9053
    endloop
  endfacet
  facet normal 0 -1 0
    outer loop
      vertex 3.08438 10 25.6427
      vertex 12.1049 10 19.0889
      vertex 13.2111 10 20.1951
    endloop
  endfacet
  facet normal 0 -1 0
    outer loop
      vertex 3.08438 10 25.6427
      vertex 3.3229 10 17.2826
      vertex 12.1049 10 19.0889
    endloop
  endfacet
  facet normal 0 -1 0
    outer loop
      vertex 2.93262 10 17.4815
      vertex 0.790438 10 21.1406
      vertex 2.5 10 17.55
    endloop
  endfacet
  facet normal 0 -1 0
    outer loop
      vertex 0.790438 10 21.1406
      vertex 2.06738 10 17.4815
      vertex 2.5 10 17.55
    endloop
  endfacet
  facet normal 0 -1 0
    outer loop
      vertex 0.790438 10 21.1406
      vertex 1.6771 10 17.2826
      vertex 2.06738 10 17.4815
    endloop
  endfacet
  facet normal 0 -1 0
    outer loop
      vertex 0.790438 10 21.1406
      vertex 1.36738 10 16.9729
      vertex 1.6771 10 17.2826
    endloop
  endfacet
  facet normal 0 -1 0
    outer loop
      vertex 3.8147e-007 10 16.15
      vertex 1.36738 10 16.9729
      vertex 0.790438 10 21.1406
    endloop
  endfacet
  facet normal 0 -1 0
    outer loop
      vertex 1.36738 10 16.9729
      vertex 3.8147e-007 10 16.15
      vertex 1.16852 10 16.5826
    endloop
  endfacet
  facet normal 0 -1 0
    outer loop
      vertex 3.8147e-007 10 16.15
      vertex 1.1 10 16.15
      vertex 1.16852 10 16.5826
    endloop
  endfacet
  facet normal 0 -1 0
    outer loop
      vertex 3.8147e-007 10 16.15
      vertex 1.16852 10 15.7174
      vertex 1.1 10 16.15
    endloop
  endfacet
  facet normal 0 -1 0
    outer loop
      vertex 3.8147e-007 10 16.15
      vertex 1.36738 10 15.3271
      vertex 1.16852 10 15.7174
    endloop
  endfacet
  facet normal 0 -1 0
    outer loop
      vertex 0.790438 10 11.1594
      vertex 1.36738 10 15.3271
      vertex 3.8147e-007 10 16.15
    endloop
  endfacet
  facet normal 0 -1 0
    outer loop
      vertex 3.63262 10 15.3271
      vertex 12.1049 10 13.2111
      vertex 11.3947 10 14.6049
    endloop
  endfacet
  facet normal 0 -1 0
    outer loop
      vertex 0.790438 10 11.1594
      vertex 2.5 10 14.75
      vertex 2.06738 10 14.8185
    endloop
  endfacet
  facet normal 0 -1 0
    outer loop
      vertex 2.93262 10 14.8185
      vertex 3.08438 10 6.65727
      vertex 12.1049 10 13.2111
    endloop
  endfacet
  facet normal 0 -1 -0
    outer loop
      vertex 12.1049 10 13.2111
      vertex 3.08438 10 6.65727
      vertex 13.2111 10 12.1049
    endloop
  endfacet
  facet normal 0 -1 -0
    outer loop
      vertex 1.36738 10 15.3271
      vertex 0.790438 10 11.1594
      vertex 1.6771 10 15.0174
    endloop
  endfacet
  facet normal 0 -1 0
    outer loop
      vertex 0.790438 10 11.1594
      vertex 2.06738 10 14.8185
      vertex 1.6771 10 15.0174
    endloop
  endfacet
  facet normal 0 -1 -0
    outer loop
      vertex 2.93262 10 14.8185
      vertex 0.790438 10 11.1594
      vertex 3.08438 10 6.65727
    endloop
  endfacet
  facet normal 0 -1 0
    outer loop
      vertex 6.65727 10 3.08438
      vertex 13.2111 10 12.1049
      vertex 3.08438 10 6.65727
    endloop
  endfacet
  facet normal 0 -1 -0
    outer loop
      vertex 13.2111 10 12.1049
      vertex 6.65727 10 3.08438
      vertex 14.6049 10 11.3947
    endloop
  endfacet
  facet normal 0 -1 0
    outer loop
      vertex 19.0889 10 20.1951
      vertex 25.6427 10 29.2156
      vertex 17.6951 10 20.9053
    endloop
  endfacet
  facet normal 0 -1 -0
    outer loop
      vertex 25.6427 10 29.2156
      vertex 19.0889 10 20.1951
      vertex 29.2156 10 25.6427
    endloop
  endfacet
  facet normal 0 -1 0
    outer loop
      vertex 20.1951 10 19.0889
      vertex 29.2156 10 25.6427
      vertex 19.0889 10 20.1951
    endloop
  endfacet
  facet normal 0 -1 0
    outer loop
      vertex 29.3674 10 17.4815
      vertex 29.2156 10 25.6427
      vertex 20.1951 10 19.0889
    endloop
  endfacet
  facet normal 0 -1 0
    outer loop
      vertex 28.6674 10 16.9729
      vertex 20.1951 10 19.0889
      vertex 20.9053 10 17.6951
    endloop
  endfacet
  facet normal 0 -1 0
    outer loop
      vertex 29.3674 10 17.4815
      vertex 31.5096 10 21.1406
      vertex 29.2156 10 25.6427
    endloop
  endfacet
  facet normal 0 -1 0
    outer loop
      vertex 30.2326 10 17.4815
      vertex 31.5096 10 21.1406
      vertex 29.8 10 17.55
    endloop
  endfacet
  facet normal 0 -1 0
    outer loop
      vertex 30.6229 10 17.2826
      vertex 31.5096 10 21.1406
      vertex 30.2326 10 17.4815
    endloop
  endfacet
  facet normal 0 -1 0
    outer loop
      vertex 30.9326 10 16.9729
      vertex 31.5096 10 21.1406
      vertex 30.6229 10 17.2826
    endloop
  endfacet
  facet normal 0 -1 0
    outer loop
      vertex 32.3 10 16.15
      vertex 30.9326 10 16.9729
      vertex 31.1315 10 16.5826
    endloop
  endfacet
  facet normal 0 -1 0
    outer loop
      vertex 32.3 10 16.15
      vertex 31.1315 10 16.5826
      vertex 31.2 10 16.15
    endloop
  endfacet
  facet normal 0 -1 0
    outer loop
      vertex 30.9326 10 16.9729
      vertex 32.3 10 16.15
      vertex 31.5096 10 21.1406
    endloop
  endfacet
  facet normal 0 -1 0
    outer loop
      vertex 31.1315 10 15.7174
      vertex 32.3 10 16.15
      vertex 31.2 10 16.15
    endloop
  endfacet
  facet normal 0 -1 0
    outer loop
      vertex 30.9326 10 15.3271
      vertex 32.3 10 16.15
      vertex 31.1315 10 15.7174
    endloop
  endfacet
  facet normal 0 -1 0
    outer loop
      vertex 31.5096 10 11.1594
      vertex 30.9326 10 15.3271
      vertex 30.6229 10 15.0174
    endloop
  endfacet
  facet normal -0 -1 0
    outer loop
      vertex 31.5096 10 11.1594
      vertex 28.9771 10 15.0174
      vertex 29.2156 10 6.65727
    endloop
  endfacet
  facet normal 0 -1 0
    outer loop
      vertex 28.9771 10 15.0174
      vertex 31.5096 10 11.1594
      vertex 29.3674 10 14.8185
    endloop
  endfacet
  facet normal 0 -1 0
    outer loop
      vertex 29.2156 10 6.65727
      vertex 20.1951 10 13.2111
      vertex 19.0889 10 12.1049
    endloop
  endfacet
  facet normal 0 -1 0
    outer loop
      vertex 25.6427 10 3.08438
      vertex 19.0889 10 12.1049
      vertex 17.6951 10 11.3947
    endloop
  endfacet
  facet normal 0 -1 0
    outer loop
      vertex 30.9326 10 15.3271
      vertex 31.5096 10 11.1594
      vertex 32.3 10 16.15
    endloop
  endfacet
  facet normal 0 -1 0
    outer loop
      vertex 30.2326 10 14.8185
      vertex 31.5096 10 11.1594
      vertex 30.6229 10 15.0174
    endloop
  endfacet
  facet normal 0 -1 0
    outer loop
      vertex 29.3674 10 14.8185
      vertex 31.5096 10 11.1594
      vertex 29.8 10 14.75
    endloop
  endfacet
  facet normal 0 -1 0
    outer loop
      vertex 21.1406 10 0.790438
      vertex 17.6951 10 11.3947
      vertex 16.15 10 11.15
    endloop
  endfacet
  facet normal 0 -1 0
    outer loop
      vertex 11.1594 10 0.790438
      vertex 14.6049 10 11.3947
      vertex 6.65727 10 3.08438
    endloop
  endfacet
  facet normal 0 -1 0
    outer loop
      vertex 29.8 10 14.75
      vertex 31.5096 10 11.1594
      vertex 30.2326 10 14.8185
    endloop
  endfacet
  facet normal 0 -1 -0
    outer loop
      vertex 14.6049 10 11.3947
      vertex 11.1594 10 0.790438
      vertex 16.15 10 11.15
    endloop
  endfacet
  facet normal 0 -1 0
    outer loop
      vertex 19.0889 10 12.1049
      vertex 25.6427 10 3.08438
      vertex 29.2156 10 6.65727
    endloop
  endfacet
  facet normal 0 -1 0
    outer loop
      vertex 16.15 10 3.8147e-007
      vertex 16.15 10 11.15
      vertex 11.1594 10 0.790438
    endloop
  endfacet
  facet normal 0 -1 0
    outer loop
      vertex 17.6951 10 11.3947
      vertex 21.1406 10 0.790438
      vertex 25.6427 10 3.08438
    endloop
  endfacet
  facet normal 0 -1 0
    outer loop
      vertex 16.15 10 11.15
      vertex 16.15 10 3.8147e-007
      vertex 21.1406 10 0.790438
    endloop
  endfacet
  facet normal 0 -1 0
    outer loop
      vertex 3.3229 10 17.2826
      vertex 0.790438 10 21.1406
      vertex 2.93262 10 17.4815
    endloop
  endfacet
  facet normal 0 -1 0
    outer loop
      vertex 3.63262 10 16.9729
      vertex 12.1049 10 19.0889
      vertex 3.3229 10 17.2826
    endloop
  endfacet
  facet normal 0 -1 0
    outer loop
      vertex 12.1049 10 19.0889
      vertex 3.63262 10 16.9729
      vertex 11.3947 10 17.6951
    endloop
  endfacet
  facet normal 0 -1 0
    outer loop
      vertex 3.83148 10 16.5826
      vertex 11.3947 10 17.6951
      vertex 3.63262 10 16.9729
    endloop
  endfacet
  facet normal 0 -1 0
    outer loop
      vertex 11.15 10 16.15
      vertex 3.83148 10 16.5826
      vertex 3.9 10 16.15
    endloop
  endfacet
  facet normal 0 -1 0
    outer loop
      vertex 3.83148 10 16.5826
      vertex 11.15 10 16.15
      vertex 11.3947 10 17.6951
    endloop
  endfacet
  facet normal 0 -1 0
    outer loop
      vertex 3.83148 10 15.7174
      vertex 11.15 10 16.15
      vertex 3.9 10 16.15
    endloop
  endfacet
  facet normal 0 -1 0
    outer loop
      vertex 11.3947 10 14.6049
      vertex 3.83148 10 15.7174
      vertex 3.63262 10 15.3271
    endloop
  endfacet
  facet normal 0 -1 0
    outer loop
      vertex 12.1049 10 13.2111
      vertex 3.63262 10 15.3271
      vertex 3.3229 10 15.0174
    endloop
  endfacet
  facet normal 0 -1 0
    outer loop
      vertex 12.1049 10 13.2111
      vertex 3.3229 10 15.0174
      vertex 2.93262 10 14.8185
    endloop
  endfacet
  facet normal 0 -1 0
    outer loop
      vertex 3.83148 10 15.7174
      vertex 11.3947 10 14.6049
      vertex 11.15 10 16.15
    endloop
  endfacet
  facet normal 0 -1 0
    outer loop
      vertex 0.790438 10 11.1594
      vertex 2.93262 10 14.8185
      vertex 2.5 10 14.75
    endloop
  endfacet
  facet normal -0.891006 0 -0.453992
    outer loop
      vertex 31.1315 10 16.5826
      vertex 30.9326 13 16.9729
      vertex 31.1315 13 16.5826
    endloop
  endfacet
  facet normal -0.891006 -0 -0.453992
    outer loop
      vertex 30.9326 13 16.9729
      vertex 31.1315 10 16.5826
      vertex 30.9326 10 16.9729
    endloop
  endfacet
  facet normal -0.707107 0 0.707107
    outer loop
      vertex 30.6229 10 15.0174
      vertex 30.9326 13 15.3271
      vertex 30.6229 13 15.0174
    endloop
  endfacet
  facet normal -0.707107 0 0.707107
    outer loop
      vertex 30.9326 13 15.3271
      vertex 30.6229 10 15.0174
      vertex 30.9326 10 15.3271
    endloop
  endfacet
  facet normal -0.987689 0 -0.156432
    outer loop
      vertex 31.2 10 16.15
      vertex 31.1315 13 16.5826
      vertex 31.2 13 16.15
    endloop
  endfacet
  facet normal -0.987689 -0 -0.156432
    outer loop
      vertex 31.1315 13 16.5826
      vertex 31.2 10 16.15
      vertex 31.1315 10 16.5826
    endloop
  endfacet
  facet normal -0.707107 0 -0.707107
    outer loop
      vertex 30.9326 10 16.9729
      vertex 30.6229 13 17.2826
      vertex 30.9326 13 16.9729
    endloop
  endfacet
  facet normal -0.707107 -0 -0.707107
    outer loop
      vertex 30.6229 13 17.2826
      vertex 30.9326 10 16.9729
      vertex 30.6229 10 17.2826
    endloop
  endfacet
  facet normal 0.453992 0 -0.891006
    outer loop
      vertex 28.9771 10 17.2826
      vertex 29.3674 13 17.4815
      vertex 29.3674 10 17.4815
    endloop
  endfacet
  facet normal 0.453992 0 -0.891006
    outer loop
      vertex 29.3674 13 17.4815
      vertex 28.9771 10 17.2826
      vertex 28.9771 13 17.2826
    endloop
  endfacet
  facet normal 0.891008 0 -0.453989
    outer loop
      vertex 28.6674 10 16.9729
      vertex 28.4685 13 16.5826
      vertex 28.6674 13 16.9729
    endloop
  endfacet
  facet normal 0.891008 0 -0.453989
    outer loop
      vertex 28.4685 13 16.5826
      vertex 28.6674 10 16.9729
      vertex 28.4685 10 16.5826
    endloop
  endfacet
  facet normal 0.987688 0 -0.156436
    outer loop
      vertex 28.4685 10 16.5826
      vertex 28.4 13 16.15
      vertex 28.4685 13 16.5826
    endloop
  endfacet
  facet normal 0.987688 0 -0.156436
    outer loop
      vertex 28.4 13 16.15
      vertex 28.4685 10 16.5826
      vertex 28.4 10 16.15
    endloop
  endfacet
  facet normal 0.707107 0 -0.707107
    outer loop
      vertex 28.9771 10 17.2826
      vertex 28.6674 13 16.9729
      vertex 28.9771 13 17.2826
    endloop
  endfacet
  facet normal 0.707107 0 -0.707107
    outer loop
      vertex 28.6674 13 16.9729
      vertex 28.9771 10 17.2826
      vertex 28.6674 10 16.9729
    endloop
  endfacet
  facet normal 0.156432 0 -0.987689
    outer loop
      vertex 29.3674 10 17.4815
      vertex 29.8 13 17.55
      vertex 29.8 10 17.55
    endloop
  endfacet
  facet normal 0.156432 0 -0.987689
    outer loop
      vertex 29.8 13 17.55
      vertex 29.3674 10 17.4815
      vertex 29.3674 13 17.4815
    endloop
  endfacet
  facet normal -0.987688 0 0.156434
    outer loop
      vertex 3.83148 10 15.7174
      vertex 3.9 13 16.15
      vertex 3.83148 13 15.7174
    endloop
  endfacet
  facet normal -0.987688 0 0.156434
    outer loop
      vertex 3.9 13 16.15
      vertex 3.83148 10 15.7174
      vertex 3.9 10 16.15
    endloop
  endfacet
  facet normal 0.987688 -0 0.156434
    outer loop
      vertex 1.1 10 16.15
      vertex 1.16852 13 15.7174
      vertex 1.1 13 16.15
    endloop
  endfacet
  facet normal 0.987688 0 0.156434
    outer loop
      vertex 1.16852 13 15.7174
      vertex 1.1 10 16.15
      vertex 1.16852 10 15.7174
    endloop
  endfacet
  facet normal 0.156434 0 0.987688
    outer loop
      vertex 2.06738 13 14.8185
      vertex 2.5 10 14.75
      vertex 2.5 13 14.75
    endloop
  endfacet
  facet normal 0.156434 0 0.987688
    outer loop
      vertex 2.5 10 14.75
      vertex 2.06738 13 14.8185
      vertex 2.06738 10 14.8185
    endloop
  endfacet
  facet normal -0.156432 0 -0.987689
    outer loop
      vertex 2.5 10 17.55
      vertex 2.93262 13 17.4815
      vertex 2.93262 10 17.4815
    endloop
  endfacet
  facet normal -0.156432 0 -0.987689
    outer loop
      vertex 2.93262 13 17.4815
      vertex 2.5 10 17.55
      vertex 2.5 13 17.55
    endloop
  endfacet
  facet normal -0.453992 0 -0.891006
    outer loop
      vertex 2.93262 10 17.4815
      vertex 3.3229 13 17.2826
      vertex 3.3229 10 17.2826
    endloop
  endfacet
  facet normal -0.453992 0 -0.891006
    outer loop
      vertex 3.3229 13 17.2826
      vertex 2.93262 10 17.4815
      vertex 2.93262 13 17.4815
    endloop
  endfacet
  facet normal -0.707108 0 0.707106
    outer loop
      vertex 3.3229 10 15.0174
      vertex 3.63262 13 15.3271
      vertex 3.3229 13 15.0174
    endloop
  endfacet
  facet normal -0.707108 0 0.707106
    outer loop
      vertex 3.63262 13 15.3271
      vertex 3.3229 10 15.0174
      vertex 3.63262 10 15.3271
    endloop
  endfacet
  facet normal -0.891007 0 0.45399
    outer loop
      vertex 3.63262 10 15.3271
      vertex 3.83148 13 15.7174
      vertex 3.63262 13 15.3271
    endloop
  endfacet
  facet normal -0.891007 0 0.45399
    outer loop
      vertex 3.83148 13 15.7174
      vertex 3.63262 10 15.3271
      vertex 3.83148 10 15.7174
    endloop
  endfacet
  facet normal -0.45399 0 0.891007
    outer loop
      vertex 2.93262 13 14.8185
      vertex 3.3229 10 15.0174
      vertex 3.3229 13 15.0174
    endloop
  endfacet
  facet normal -0.45399 0 0.891007
    outer loop
      vertex 3.3229 10 15.0174
      vertex 2.93262 13 14.8185
      vertex 2.93262 10 14.8185
    endloop
  endfacet
  facet normal 0.707107 -0 0.707107
    outer loop
      vertex 1.36738 10 15.3271
      vertex 1.6771 13 15.0174
      vertex 1.36738 13 15.3271
    endloop
  endfacet
  facet normal 0.707107 0 0.707107
    outer loop
      vertex 1.6771 13 15.0174
      vertex 1.36738 10 15.3271
      vertex 1.6771 10 15.0174
    endloop
  endfacet
  facet normal 0.891007 -0 0.45399
    outer loop
      vertex 1.16852 10 15.7174
      vertex 1.36738 13 15.3271
      vertex 1.16852 13 15.7174
    endloop
  endfacet
  facet normal 0.891007 0 0.45399
    outer loop
      vertex 1.36738 13 15.3271
      vertex 1.16852 10 15.7174
      vertex 1.36738 10 15.3271
    endloop
  endfacet
  facet normal 0.453991 0 0.891006
    outer loop
      vertex 1.6771 13 15.0174
      vertex 2.06738 10 14.8185
      vertex 2.06738 13 14.8185
    endloop
  endfacet
  facet normal 0.453991 0 0.891006
    outer loop
      vertex 2.06738 10 14.8185
      vertex 1.6771 13 15.0174
      vertex 1.6771 10 15.0174
    endloop
  endfacet
  facet normal 0.707107 0 -0.707107
    outer loop
      vertex 1.6771 10 17.2826
      vertex 1.36738 13 16.9729
      vertex 1.6771 13 17.2826
    endloop
  endfacet
  facet normal 0.707107 0 -0.707107
    outer loop
      vertex 1.36738 13 16.9729
      vertex 1.6771 10 17.2826
      vertex 1.36738 10 16.9729
    endloop
  endfacet
  facet normal -0.156434 0 0.987688
    outer loop
      vertex 2.5 13 14.75
      vertex 2.93262 10 14.8185
      vertex 2.93262 13 14.8185
    endloop
  endfacet
  facet normal -0.156434 0 0.987688
    outer loop
      vertex 2.93262 10 14.8185
      vertex 2.5 13 14.75
      vertex 2.5 10 14.75
    endloop
  endfacet
  facet normal -0.987688 0 -0.156434
    outer loop
      vertex 3.9 10 16.15
      vertex 3.83148 13 16.5826
      vertex 3.9 13 16.15
    endloop
  endfacet
  facet normal -0.987688 -0 -0.156434
    outer loop
      vertex 3.83148 13 16.5826
      vertex 3.9 10 16.15
      vertex 3.83148 10 16.5826
    endloop
  endfacet
  facet normal -0.707108 0 -0.707106
    outer loop
      vertex 3.63262 10 16.9729
      vertex 3.3229 13 17.2826
      vertex 3.63262 13 16.9729
    endloop
  endfacet
  facet normal -0.707108 -0 -0.707106
    outer loop
      vertex 3.3229 13 17.2826
      vertex 3.63262 10 16.9729
      vertex 3.3229 10 17.2826
    endloop
  endfacet
  facet normal -0.891007 0 -0.45399
    outer loop
      vertex 3.83148 10 16.5826
      vertex 3.63262 13 16.9729
      vertex 3.83148 13 16.5826
    endloop
  endfacet
  facet normal -0.891007 -0 -0.45399
    outer loop
      vertex 3.63262 13 16.9729
      vertex 3.83148 10 16.5826
      vertex 3.63262 10 16.9729
    endloop
  endfacet
  facet normal 0.156432 0 -0.987689
    outer loop
      vertex 2.06738 10 17.4815
      vertex 2.5 13 17.55
      vertex 2.5 10 17.55
    endloop
  endfacet
  facet normal 0.156432 0 -0.987689
    outer loop
      vertex 2.5 13 17.55
      vertex 2.06738 10 17.4815
      vertex 2.06738 13 17.4815
    endloop
  endfacet
  facet normal 0.891007 0 -0.45399
    outer loop
      vertex 1.36738 10 16.9729
      vertex 1.16852 13 16.5826
      vertex 1.36738 13 16.9729
    endloop
  endfacet
  facet normal 0.891007 0 -0.45399
    outer loop
      vertex 1.16852 13 16.5826
      vertex 1.36738 10 16.9729
      vertex 1.16852 10 16.5826
    endloop
  endfacet
  facet normal 0.987688 0 -0.156434
    outer loop
      vertex 1.16852 10 16.5826
      vertex 1.1 13 16.15
      vertex 1.16852 13 16.5826
    endloop
  endfacet
  facet normal 0.987688 0 -0.156434
    outer loop
      vertex 1.1 13 16.15
      vertex 1.16852 10 16.5826
      vertex 1.1 10 16.15
    endloop
  endfacet
  facet normal 0.453993 0 -0.891005
    outer loop
      vertex 1.6771 10 17.2826
      vertex 2.06738 13 17.4815
      vertex 2.06738 10 17.4815
    endloop
  endfacet
  facet normal 0.453993 0 -0.891005
    outer loop
      vertex 2.06738 13 17.4815
      vertex 1.6771 10 17.2826
      vertex 1.6771 13 17.2826
    endloop
  endfacet
  facet normal -0.987688 0 0.156434
    outer loop
      vertex 20.9053 10 14.6049
      vertex 21.15 13 16.15
      vertex 20.9053 13 14.6049
    endloop
  endfacet
  facet normal -0.987688 0 0.156434
    outer loop
      vertex 21.15 13 16.15
      vertex 20.9053 10 14.6049
      vertex 21.15 10 16.15
    endloop
  endfacet
  facet normal 0.987688 -0 0.156435
    outer loop
      vertex 11.15 10 16.15
      vertex 11.3947 13 14.6049
      vertex 11.15 13 16.15
    endloop
  endfacet
  facet normal 0.987688 0 0.156435
    outer loop
      vertex 11.3947 13 14.6049
      vertex 11.15 10 16.15
      vertex 11.3947 10 14.6049
    endloop
  endfacet
  facet normal -0.156434 0 0.987688
    outer loop
      vertex 16.15 13 11.15
      vertex 17.6951 10 11.3947
      vertex 17.6951 13 11.3947
    endloop
  endfacet
  facet normal -0.156434 0 0.987688
    outer loop
      vertex 17.6951 10 11.3947
      vertex 16.15 13 11.15
      vertex 16.15 10 11.15
    endloop
  endfacet
  facet normal 0.156434 0 -0.987688
    outer loop
      vertex 14.6049 10 20.9053
      vertex 16.15 13 21.15
      vertex 16.15 10 21.15
    endloop
  endfacet
  facet normal 0.156434 0 -0.987688
    outer loop
      vertex 16.15 13 21.15
      vertex 14.6049 10 20.9053
      vertex 14.6049 13 20.9053
    endloop
  endfacet
  facet normal -0.707107 0 0.707107
    outer loop
      vertex 19.0889 10 12.1049
      vertex 20.1951 13 13.2111
      vertex 19.0889 13 12.1049
    endloop
  endfacet
  facet normal -0.707107 0 0.707107
    outer loop
      vertex 20.1951 13 13.2111
      vertex 19.0889 10 12.1049
      vertex 20.1951 10 13.2111
    endloop
  endfacet
  facet normal -0.891006 0 0.453991
    outer loop
      vertex 20.1951 10 13.2111
      vertex 20.9053 13 14.6049
      vertex 20.1951 13 13.2111
    endloop
  endfacet
  facet normal -0.891006 0 0.453991
    outer loop
      vertex 20.9053 13 14.6049
      vertex 20.1951 10 13.2111
      vertex 20.9053 10 14.6049
    endloop
  endfacet
  facet normal -0.453991 0 0.891006
    outer loop
      vertex 17.6951 13 11.3947
      vertex 19.0889 10 12.1049
      vertex 19.0889 13 12.1049
    endloop
  endfacet
  facet normal -0.453991 0 0.891006
    outer loop
      vertex 19.0889 10 12.1049
      vertex 17.6951 13 11.3947
      vertex 17.6951 10 11.3947
    endloop
  endfacet
  facet normal 0.453991 0 0.891006
    outer loop
      vertex 13.2111 13 12.1049
      vertex 14.6049 10 11.3947
      vertex 14.6049 13 11.3947
    endloop
  endfacet
  facet normal 0.453991 0 0.891006
    outer loop
      vertex 14.6049 10 11.3947
      vertex 13.2111 13 12.1049
      vertex 13.2111 10 12.1049
    endloop
  endfacet
  facet normal 0.707107 -0 0.707107
    outer loop
      vertex 12.1049 10 13.2111
      vertex 13.2111 13 12.1049
      vertex 12.1049 13 13.2111
    endloop
  endfacet
  facet normal 0.707107 0 0.707107
    outer loop
      vertex 13.2111 13 12.1049
      vertex 12.1049 10 13.2111
      vertex 13.2111 10 12.1049
    endloop
  endfacet
  facet normal 0.156435 0 0.987688
    outer loop
      vertex 14.6049 13 11.3947
      vertex 16.15 10 11.15
      vertex 16.15 13 11.15
    endloop
  endfacet
  facet normal 0.156435 0 0.987688
    outer loop
      vertex 16.15 10 11.15
      vertex 14.6049 13 11.3947
      vertex 14.6049 10 11.3947
    endloop
  endfacet
  facet normal -0.891006 0 -0.453991
    outer loop
      vertex 20.9053 10 17.6951
      vertex 20.1951 13 19.0889
      vertex 20.9053 13 17.6951
    endloop
  endfacet
  facet normal -0.891006 -0 -0.453991
    outer loop
      vertex 20.1951 13 19.0889
      vertex 20.9053 10 17.6951
      vertex 20.1951 10 19.0889
    endloop
  endfacet
  facet normal 0.707107 0 -0.707107
    outer loop
      vertex 13.2111 10 20.1951
      vertex 12.1049 13 19.0889
      vertex 13.2111 13 20.1951
    endloop
  endfacet
  facet normal 0.707107 0 -0.707107
    outer loop
      vertex 12.1049 13 19.0889
      vertex 13.2111 10 20.1951
      vertex 12.1049 10 19.0889
    endloop
  endfacet
  facet normal 0.987688 0 -0.156434
    outer loop
      vertex 11.3947 10 17.6951
      vertex 11.15 13 16.15
      vertex 11.3947 13 17.6951
    endloop
  endfacet
  facet normal 0.987688 0 -0.156434
    outer loop
      vertex 11.15 13 16.15
      vertex 11.3947 10 17.6951
      vertex 11.15 10 16.15
    endloop
  endfacet
  facet normal 0.891006 -0 0.453991
    outer loop
      vertex 11.3947 10 14.6049
      vertex 12.1049 13 13.2111
      vertex 11.3947 13 14.6049
    endloop
  endfacet
  facet normal 0.891006 0 0.453991
    outer loop
      vertex 12.1049 13 13.2111
      vertex 11.3947 10 14.6049
      vertex 12.1049 10 13.2111
    endloop
  endfacet
  facet normal -0.987688 0 -0.156434
    outer loop
      vertex 21.15 10 16.15
      vertex 20.9053 13 17.6951
      vertex 21.15 13 16.15
    endloop
  endfacet
  facet normal -0.987688 -0 -0.156434
    outer loop
      vertex 20.9053 13 17.6951
      vertex 21.15 10 16.15
      vertex 20.9053 10 17.6951
    endloop
  endfacet
  facet normal -0.156434 0 -0.987688
    outer loop
      vertex 16.15 10 21.15
      vertex 17.6951 13 20.9053
      vertex 17.6951 10 20.9053
    endloop
  endfacet
  facet normal -0.156434 0 -0.987688
    outer loop
      vertex 17.6951 13 20.9053
      vertex 16.15 10 21.15
      vertex 16.15 13 21.15
    endloop
  endfacet
  facet normal -0.707107 0 -0.707107
    outer loop
      vertex 20.1951 10 19.0889
      vertex 19.0889 13 20.1951
      vertex 20.1951 13 19.0889
    endloop
  endfacet
  facet normal -0.707107 -0 -0.707107
    outer loop
      vertex 19.0889 13 20.1951
      vertex 20.1951 10 19.0889
      vertex 19.0889 10 20.1951
    endloop
  endfacet
  facet normal 0.453991 0 -0.891006
    outer loop
      vertex 13.2111 10 20.1951
      vertex 14.6049 13 20.9053
      vertex 14.6049 10 20.9053
    endloop
  endfacet
  facet normal 0.453991 0 -0.891006
    outer loop
      vertex 14.6049 13 20.9053
      vertex 13.2111 10 20.1951
      vertex 13.2111 13 20.1951
    endloop
  endfacet
  facet normal 0.891006 0 -0.453991
    outer loop
      vertex 12.1049 10 19.0889
      vertex 11.3947 13 17.6951
      vertex 12.1049 13 19.0889
    endloop
  endfacet
  facet normal 0.891006 0 -0.453991
    outer loop
      vertex 11.3947 13 17.6951
      vertex 12.1049 10 19.0889
      vertex 11.3947 10 17.6951
    endloop
  endfacet
  facet normal -0.453991 0 -0.891006
    outer loop
      vertex 17.6951 10 20.9053
      vertex 19.0889 13 20.1951
      vertex 19.0889 10 20.1951
    endloop
  endfacet
  facet normal -0.453991 0 -0.891006
    outer loop
      vertex 19.0889 13 20.1951
      vertex 17.6951 10 20.9053
      vertex 17.6951 13 20.9053
    endloop
  endfacet
  facet normal 0.987688 0 -0.156435
    outer loop
      vertex 32.3 10 16.15
      vertex 31.5096 13 11.1594
      vertex 32.3 13 16.15
    endloop
  endfacet
  facet normal 0.987688 0 -0.156435
    outer loop
      vertex 31.5096 13 11.1594
      vertex 32.3 10 16.15
      vertex 31.5096 10 11.1594
    endloop
  endfacet
  facet normal -0.987688 0 -0.156435
    outer loop
      vertex 0.790438 10 11.1594
      vertex 3.8147e-007 13 16.15
      vertex 0.790438 13 11.1594
    endloop
  endfacet
  facet normal -0.987688 -0 -0.156435
    outer loop
      vertex 3.8147e-007 13 16.15
      vertex 0.790438 10 11.1594
      vertex 3.8147e-007 10 16.15
    endloop
  endfacet
  facet normal 0.156435 0 -0.987688
    outer loop
      vertex 16.15 10 3.8147e-007
      vertex 21.1406 13 0.790438
      vertex 21.1406 10 0.790438
    endloop
  endfacet
  facet normal 0.156435 0 -0.987688
    outer loop
      vertex 21.1406 13 0.790438
      vertex 16.15 10 3.8147e-007
      vertex 16.15 13 3.8147e-007
    endloop
  endfacet
  facet normal -0.156435 0 0.987688
    outer loop
      vertex 11.1594 13 31.5096
      vertex 16.15 10 32.3
      vertex 16.15 13 32.3
    endloop
  endfacet
  facet normal -0.156435 0 0.987688
    outer loop
      vertex 16.15 10 32.3
      vertex 11.1594 13 31.5096
      vertex 11.1594 10 31.5096
    endloop
  endfacet
  facet normal 0.707107 0 -0.707107
    outer loop
      vertex 29.2156 10 6.65727
      vertex 25.6427 13 3.08438
      vertex 29.2156 13 6.65727
    endloop
  endfacet
  facet normal 0.707107 0 -0.707107
    outer loop
      vertex 25.6427 13 3.08438
      vertex 29.2156 10 6.65727
      vertex 25.6427 10 3.08438
    endloop
  endfacet
  facet normal 0.891007 0 -0.453991
    outer loop
      vertex 31.5096 10 11.1594
      vertex 29.2156 13 6.65727
      vertex 31.5096 13 11.1594
    endloop
  endfacet
  facet normal 0.891007 0 -0.453991
    outer loop
      vertex 29.2156 13 6.65727
      vertex 31.5096 10 11.1594
      vertex 29.2156 10 6.65727
    endloop
  endfacet
  facet normal 0.453991 0 -0.891006
    outer loop
      vertex 21.1406 10 0.790438
      vertex 25.6427 13 3.08438
      vertex 25.6427 10 3.08438
    endloop
  endfacet
  facet normal 0.453991 0 -0.891006
    outer loop
      vertex 25.6427 13 3.08438
      vertex 21.1406 10 0.790438
      vertex 21.1406 13 0.790438
    endloop
  endfacet
  facet normal -0.453991 0 -0.891007
    outer loop
      vertex 6.65727 10 3.08438
      vertex 11.1594 13 0.790438
      vertex 11.1594 10 0.790438
    endloop
  endfacet
  facet normal -0.453991 0 -0.891007
    outer loop
      vertex 11.1594 13 0.790438
      vertex 6.65727 10 3.08438
      vertex 6.65727 13 3.08438
    endloop
  endfacet
  facet normal -0.707107 0 -0.707107
    outer loop
      vertex 6.65727 10 3.08438
      vertex 3.08438 13 6.65727
      vertex 6.65727 13 3.08438
    endloop
  endfacet
  facet normal -0.707107 -0 -0.707107
    outer loop
      vertex 3.08438 13 6.65727
      vertex 6.65727 10 3.08438
      vertex 3.08438 10 6.65727
    endloop
  endfacet
  facet normal -0.156435 0 -0.987688
    outer loop
      vertex 11.1594 10 0.790438
      vertex 16.15 13 3.8147e-007
      vertex 16.15 10 3.8147e-007
    endloop
  endfacet
  facet normal -0.156435 0 -0.987688
    outer loop
      vertex 16.15 13 3.8147e-007
      vertex 11.1594 10 0.790438
      vertex 11.1594 13 0.790438
    endloop
  endfacet
  facet normal 0.891007 -0 0.453991
    outer loop
      vertex 29.2156 10 25.6427
      vertex 31.5096 13 21.1406
      vertex 29.2156 13 25.6427
    endloop
  endfacet
  facet normal 0.891007 0 0.453991
    outer loop
      vertex 31.5096 13 21.1406
      vertex 29.2156 10 25.6427
      vertex 31.5096 10 21.1406
    endloop
  endfacet
  facet normal -0.707107 0 0.707107
    outer loop
      vertex 3.08438 10 25.6427
      vertex 6.65727 13 29.2156
      vertex 3.08438 13 25.6427
    endloop
  endfacet
  facet normal -0.707107 0 0.707107
    outer loop
      vertex 6.65727 13 29.2156
      vertex 3.08438 10 25.6427
      vertex 6.65727 10 29.2156
    endloop
  endfacet
  facet normal -0.987688 0 0.156435
    outer loop
      vertex 3.8147e-007 10 16.15
      vertex 0.790438 13 21.1406
      vertex 3.8147e-007 13 16.15
    endloop
  endfacet
  facet normal -0.987688 0 0.156435
    outer loop
      vertex 0.790438 13 21.1406
      vertex 3.8147e-007 10 16.15
      vertex 0.790438 10 21.1406
    endloop
  endfacet
  facet normal -0.891007 0 -0.453991
    outer loop
      vertex 3.08438 10 6.65727
      vertex 0.790438 13 11.1594
      vertex 3.08438 13 6.65727
    endloop
  endfacet
  facet normal -0.891007 -0 -0.453991
    outer loop
      vertex 0.790438 13 11.1594
      vertex 3.08438 10 6.65727
      vertex 0.790438 10 11.1594
    endloop
  endfacet
  facet normal 0 1 0
    outer loop
      vertex 0.790438 13 21.1406
      vertex 2.93262 13 17.4815
      vertex 2.5 13 17.55
    endloop
  endfacet
  facet normal 0 1 0
    outer loop
      vertex 12.1049 13 19.0889
      vertex 3.3229 13 17.2826
      vertex 2.93262 13 17.4815
    endloop
  endfacet
  facet normal 0 1 0
    outer loop
      vertex 12.1049 13 19.0889
      vertex 3.63262 13 16.9729
      vertex 3.3229 13 17.2826
    endloop
  endfacet
  facet normal 0 1 0
    outer loop
      vertex 11.3947 13 17.6951
      vertex 3.83148 13 16.5826
      vertex 3.63262 13 16.9729
    endloop
  endfacet
  facet normal 0 1 -0
    outer loop
      vertex 11.15 13 16.15
      vertex 3.83148 13 16.5826
      vertex 11.3947 13 17.6951
    endloop
  endfacet
  facet normal 0 1 0
    outer loop
      vertex 11.15 13 16.15
      vertex 3.9 13 16.15
      vertex 3.83148 13 16.5826
    endloop
  endfacet
  facet normal 0 1 0
    outer loop
      vertex 11.15 13 16.15
      vertex 3.83148 13 15.7174
      vertex 3.9 13 16.15
    endloop
  endfacet
  facet normal 0 1 0
    outer loop
      vertex 11.3947 13 14.6049
      vertex 3.83148 13 15.7174
      vertex 11.15 13 16.15
    endloop
  endfacet
  facet normal 0 1 0
    outer loop
      vertex 3.83148 13 15.7174
      vertex 11.3947 13 14.6049
      vertex 3.63262 13 15.3271
    endloop
  endfacet
  facet normal 0 1 0
    outer loop
      vertex 12.1049 13 13.2111
      vertex 3.63262 13 15.3271
      vertex 11.3947 13 14.6049
    endloop
  endfacet
  facet normal 0 1 0
    outer loop
      vertex 3.08438 13 6.65727
      vertex 3.3229 13 15.0174
      vertex 12.1049 13 13.2111
    endloop
  endfacet
  facet normal 0 1 0
    outer loop
      vertex 3.63262 13 15.3271
      vertex 12.1049 13 13.2111
      vertex 3.3229 13 15.0174
    endloop
  endfacet
  facet normal 0 1 0
    outer loop
      vertex 16.15 13 21.15
      vertex 16.15 13 32.3
      vertex 21.1406 13 31.5096
    endloop
  endfacet
  facet normal 0 1 0
    outer loop
      vertex 17.6951 13 20.9053
      vertex 21.1406 13 31.5096
      vertex 25.6427 13 29.2156
    endloop
  endfacet
  facet normal 0 1 0
    outer loop
      vertex 16.15 13 32.3
      vertex 16.15 13 21.15
      vertex 11.1594 13 31.5096
    endloop
  endfacet
  facet normal 0 1 0
    outer loop
      vertex 19.0889 13 20.1951
      vertex 25.6427 13 29.2156
      vertex 29.2156 13 25.6427
    endloop
  endfacet
  facet normal 0 1 -0
    outer loop
      vertex 14.6049 13 20.9053
      vertex 11.1594 13 31.5096
      vertex 16.15 13 21.15
    endloop
  endfacet
  facet normal 0 1 0
    outer loop
      vertex 11.1594 13 31.5096
      vertex 14.6049 13 20.9053
      vertex 6.65727 13 29.2156
    endloop
  endfacet
  facet normal 0 1 0
    outer loop
      vertex 28.9771 13 17.2826
      vertex 29.2156 13 25.6427
      vertex 31.5096 13 21.1406
    endloop
  endfacet
  facet normal 0 1 0
    outer loop
      vertex 21.1406 13 31.5096
      vertex 17.6951 13 20.9053
      vertex 16.15 13 21.15
    endloop
  endfacet
  facet normal 0 1 0
    outer loop
      vertex 25.6427 13 29.2156
      vertex 19.0889 13 20.1951
      vertex 17.6951 13 20.9053
    endloop
  endfacet
  facet normal 0 1 0
    outer loop
      vertex 29.2156 13 25.6427
      vertex 20.1951 13 19.0889
      vertex 19.0889 13 20.1951
    endloop
  endfacet
  facet normal 0 1 0
    outer loop
      vertex 29.2156 13 25.6427
      vertex 28.9771 13 17.2826
      vertex 20.1951 13 19.0889
    endloop
  endfacet
  facet normal 0 1 0
    outer loop
      vertex 29.3674 13 17.4815
      vertex 31.5096 13 21.1406
      vertex 29.8 13 17.55
    endloop
  endfacet
  facet normal 0 1 0
    outer loop
      vertex 31.5096 13 21.1406
      vertex 30.2326 13 17.4815
      vertex 29.8 13 17.55
    endloop
  endfacet
  facet normal 0 1 0
    outer loop
      vertex 31.5096 13 21.1406
      vertex 30.6229 13 17.2826
      vertex 30.2326 13 17.4815
    endloop
  endfacet
  facet normal 0 1 0
    outer loop
      vertex 31.5096 13 21.1406
      vertex 30.9326 13 16.9729
      vertex 30.6229 13 17.2826
    endloop
  endfacet
  facet normal 0 1 0
    outer loop
      vertex 32.3 13 16.15
      vertex 30.9326 13 16.9729
      vertex 31.5096 13 21.1406
    endloop
  endfacet
  facet normal 0 1 0
    outer loop
      vertex 30.9326 13 16.9729
      vertex 32.3 13 16.15
      vertex 31.1315 13 16.5826
    endloop
  endfacet
  facet normal 0 1 0
    outer loop
      vertex 32.3 13 16.15
      vertex 31.2 13 16.15
      vertex 31.1315 13 16.5826
    endloop
  endfacet
  facet normal 0 1 0
    outer loop
      vertex 32.3 13 16.15
      vertex 31.1315 13 15.7174
      vertex 31.2 13 16.15
    endloop
  endfacet
  facet normal 0 1 0
    outer loop
      vertex 32.3 13 16.15
      vertex 30.9326 13 15.3271
      vertex 31.1315 13 15.7174
    endloop
  endfacet
  facet normal 0 1 -0
    outer loop
      vertex 31.5096 13 11.1594
      vertex 30.9326 13 15.3271
      vertex 32.3 13 16.15
    endloop
  endfacet
  facet normal 0 1 0
    outer loop
      vertex 28.6674 13 15.3271
      vertex 20.1951 13 13.2111
      vertex 20.9053 13 14.6049
    endloop
  endfacet
  facet normal 0 1 0
    outer loop
      vertex 31.5096 13 11.1594
      vertex 29.8 13 14.75
      vertex 30.2326 13 14.8185
    endloop
  endfacet
  facet normal 0 1 0
    outer loop
      vertex 29.3674 13 14.8185
      vertex 29.2156 13 6.65727
      vertex 20.1951 13 13.2111
    endloop
  endfacet
  facet normal 0 1 0
    outer loop
      vertex 20.1951 13 13.2111
      vertex 29.2156 13 6.65727
      vertex 19.0889 13 12.1049
    endloop
  endfacet
  facet normal 0 1 0
    outer loop
      vertex 30.9326 13 15.3271
      vertex 31.5096 13 11.1594
      vertex 30.6229 13 15.0174
    endloop
  endfacet
  facet normal 0 1 0
    outer loop
      vertex 31.5096 13 11.1594
      vertex 30.2326 13 14.8185
      vertex 30.6229 13 15.0174
    endloop
  endfacet
  facet normal 0 1 0
    outer loop
      vertex 29.3674 13 14.8185
      vertex 31.5096 13 11.1594
      vertex 29.2156 13 6.65727
    endloop
  endfacet
  facet normal 0 1 -0
    outer loop
      vertex 25.6427 13 3.08438
      vertex 19.0889 13 12.1049
      vertex 29.2156 13 6.65727
    endloop
  endfacet
  facet normal 0 1 0
    outer loop
      vertex 19.0889 13 12.1049
      vertex 25.6427 13 3.08438
      vertex 17.6951 13 11.3947
    endloop
  endfacet
  facet normal 0 1 -0
    outer loop
      vertex 13.2111 13 20.1951
      vertex 6.65727 13 29.2156
      vertex 14.6049 13 20.9053
    endloop
  endfacet
  facet normal 0 1 0
    outer loop
      vertex 6.65727 13 29.2156
      vertex 13.2111 13 20.1951
      vertex 3.08438 13 25.6427
    endloop
  endfacet
  facet normal 0 1 -0
    outer loop
      vertex 12.1049 13 19.0889
      vertex 3.08438 13 25.6427
      vertex 13.2111 13 20.1951
    endloop
  endfacet
  facet normal 0 1 0
    outer loop
      vertex 2.93262 13 17.4815
      vertex 3.08438 13 25.6427
      vertex 12.1049 13 19.0889
    endloop
  endfacet
  facet normal 0 1 0
    outer loop
      vertex 3.63262 13 16.9729
      vertex 12.1049 13 19.0889
      vertex 11.3947 13 17.6951
    endloop
  endfacet
  facet normal 0 1 -0
    outer loop
      vertex 2.93262 13 17.4815
      vertex 0.790438 13 21.1406
      vertex 3.08438 13 25.6427
    endloop
  endfacet
  facet normal 0 1 -0
    outer loop
      vertex 2.06738 13 17.4815
      vertex 0.790438 13 21.1406
      vertex 2.5 13 17.55
    endloop
  endfacet
  facet normal 0 1 -0
    outer loop
      vertex 1.6771 13 17.2826
      vertex 0.790438 13 21.1406
      vertex 2.06738 13 17.4815
    endloop
  endfacet
  facet normal 0 1 -0
    outer loop
      vertex 1.36738 13 16.9729
      vertex 0.790438 13 21.1406
      vertex 1.6771 13 17.2826
    endloop
  endfacet
  facet normal 0 1 0
    outer loop
      vertex 3.8147e-007 13 16.15
      vertex 1.36738 13 16.9729
      vertex 1.16852 13 16.5826
    endloop
  endfacet
  facet normal 0 1 0
    outer loop
      vertex 3.8147e-007 13 16.15
      vertex 1.16852 13 16.5826
      vertex 1.1 13 16.15
    endloop
  endfacet
  facet normal 0 1 0
    outer loop
      vertex 1.36738 13 16.9729
      vertex 3.8147e-007 13 16.15
      vertex 0.790438 13 21.1406
    endloop
  endfacet
  facet normal 0 1 0
    outer loop
      vertex 1.16852 13 15.7174
      vertex 3.8147e-007 13 16.15
      vertex 1.1 13 16.15
    endloop
  endfacet
  facet normal 0 1 0
    outer loop
      vertex 1.36738 13 15.3271
      vertex 3.8147e-007 13 16.15
      vertex 1.16852 13 15.7174
    endloop
  endfacet
  facet normal 0 1 0
    outer loop
      vertex 0.790438 13 11.1594
      vertex 1.36738 13 15.3271
      vertex 1.6771 13 15.0174
    endloop
  endfacet
  facet normal -0 1 0
    outer loop
      vertex 0.790438 13 11.1594
      vertex 3.3229 13 15.0174
      vertex 3.08438 13 6.65727
    endloop
  endfacet
  facet normal 0 1 0
    outer loop
      vertex 3.3229 13 15.0174
      vertex 0.790438 13 11.1594
      vertex 2.93262 13 14.8185
    endloop
  endfacet
  facet normal 0 1 0
    outer loop
      vertex 3.08438 13 6.65727
      vertex 12.1049 13 13.2111
      vertex 13.2111 13 12.1049
    endloop
  endfacet
  facet normal 0 1 0
    outer loop
      vertex 6.65727 13 3.08438
      vertex 13.2111 13 12.1049
      vertex 14.6049 13 11.3947
    endloop
  endfacet
  facet normal 0 1 0
    outer loop
      vertex 1.36738 13 15.3271
      vertex 0.790438 13 11.1594
      vertex 3.8147e-007 13 16.15
    endloop
  endfacet
  facet normal 0 1 0
    outer loop
      vertex 2.06738 13 14.8185
      vertex 0.790438 13 11.1594
      vertex 1.6771 13 15.0174
    endloop
  endfacet
  facet normal 0 1 0
    outer loop
      vertex 2.93262 13 14.8185
      vertex 0.790438 13 11.1594
      vertex 2.5 13 14.75
    endloop
  endfacet
  facet normal 0 1 0
    outer loop
      vertex 11.1594 13 0.790438
      vertex 14.6049 13 11.3947
      vertex 16.15 13 11.15
    endloop
  endfacet
  facet normal 0 1 -0
    outer loop
      vertex 21.1406 13 0.790438
      vertex 17.6951 13 11.3947
      vertex 25.6427 13 3.08438
    endloop
  endfacet
  facet normal 0 1 0
    outer loop
      vertex 2.5 13 14.75
      vertex 0.790438 13 11.1594
      vertex 2.06738 13 14.8185
    endloop
  endfacet
  facet normal 0 1 0
    outer loop
      vertex 17.6951 13 11.3947
      vertex 21.1406 13 0.790438
      vertex 16.15 13 11.15
    endloop
  endfacet
  facet normal 0 1 0
    outer loop
      vertex 13.2111 13 12.1049
      vertex 6.65727 13 3.08438
      vertex 3.08438 13 6.65727
    endloop
  endfacet
  facet normal 0 1 0
    outer loop
      vertex 16.15 13 3.8147e-007
      vertex 16.15 13 11.15
      vertex 21.1406 13 0.790438
    endloop
  endfacet
  facet normal 0 1 0
    outer loop
      vertex 14.6049 13 11.3947
      vertex 11.1594 13 0.790438
      vertex 6.65727 13 3.08438
    endloop
  endfacet
  facet normal 0 1 0
    outer loop
      vertex 16.15 13 11.15
      vertex 16.15 13 3.8147e-007
      vertex 11.1594 13 0.790438
    endloop
  endfacet
  facet normal 0 1 0
    outer loop
      vertex 28.9771 13 17.2826
      vertex 31.5096 13 21.1406
      vertex 29.3674 13 17.4815
    endloop
  endfacet
  facet normal 0 1 -0
    outer loop
      vertex 28.6674 13 16.9729
      vertex 20.1951 13 19.0889
      vertex 28.9771 13 17.2826
    endloop
  endfacet
  facet normal 0 1 0
    outer loop
      vertex 20.1951 13 19.0889
      vertex 28.6674 13 16.9729
      vertex 20.9053 13 17.6951
    endloop
  endfacet
  facet normal 0 1 -0
    outer loop
      vertex 28.4685 13 16.5826
      vertex 20.9053 13 17.6951
      vertex 28.6674 13 16.9729
    endloop
  endfacet
  facet normal 0 1 0
    outer loop
      vertex 21.15 13 16.15
      vertex 28.4685 13 16.5826
      vertex 28.4 13 16.15
    endloop
  endfacet
  facet normal 0 1 0
    outer loop
      vertex 28.4685 13 16.5826
      vertex 21.15 13 16.15
      vertex 20.9053 13 17.6951
    endloop
  endfacet
  facet normal 0 1 0
    outer loop
      vertex 28.4685 13 15.7174
      vertex 21.15 13 16.15
      vertex 28.4 13 16.15
    endloop
  endfacet
  facet normal 0 1 0
    outer loop
      vertex 20.9053 13 14.6049
      vertex 28.4685 13 15.7174
      vertex 28.6674 13 15.3271
    endloop
  endfacet
  facet normal 0 1 0
    outer loop
      vertex 20.1951 13 13.2111
      vertex 28.6674 13 15.3271
      vertex 28.9771 13 15.0174
    endloop
  endfacet
  facet normal 0 1 0
    outer loop
      vertex 20.1951 13 13.2111
      vertex 28.9771 13 15.0174
      vertex 29.3674 13 14.8185
    endloop
  endfacet
  facet normal 0 1 0
    outer loop
      vertex 28.4685 13 15.7174
      vertex 20.9053 13 14.6049
      vertex 21.15 13 16.15
    endloop
  endfacet
  facet normal 0 1 0
    outer loop
      vertex 31.5096 13 11.1594
      vertex 29.3674 13 14.8185
      vertex 29.8 13 14.75
    endloop
  endfacet
  facet normal 0.987688 -0 0.156435
    outer loop
      vertex 31.5096 10 21.1406
      vertex 32.3 13 16.15
      vertex 31.5096 13 21.1406
    endloop
  endfacet
  facet normal 0.987688 0 0.156435
    outer loop
      vertex 32.3 13 16.15
      vertex 31.5096 10 21.1406
      vertex 32.3 10 16.15
    endloop
  endfacet
  facet normal 0.156435 0 0.987688
    outer loop
      vertex 16.15 13 32.3
      vertex 21.1406 10 31.5096
      vertex 21.1406 13 31.5096
    endloop
  endfacet
  facet normal 0.156435 0 0.987688
    outer loop
      vertex 21.1406 10 31.5096
      vertex 16.15 13 32.3
      vertex 16.15 10 32.3
    endloop
  endfacet
  facet normal 0.707107 -0 0.707107
    outer loop
      vertex 25.6427 10 29.2156
      vertex 29.2156 13 25.6427
      vertex 25.6427 13 29.2156
    endloop
  endfacet
  facet normal 0.707107 0 0.707107
    outer loop
      vertex 29.2156 13 25.6427
      vertex 25.6427 10 29.2156
      vertex 29.2156 10 25.6427
    endloop
  endfacet
  facet normal -0.453991 0 0.891007
    outer loop
      vertex 6.65727 13 29.2156
      vertex 11.1594 10 31.5096
      vertex 11.1594 13 31.5096
    endloop
  endfacet
  facet normal -0.453991 0 0.891007
    outer loop
      vertex 11.1594 10 31.5096
      vertex 6.65727 13 29.2156
      vertex 6.65727 10 29.2156
    endloop
  endfacet
  facet normal -0.891006 0 0.453991
    outer loop
      vertex 0.790438 10 21.1406
      vertex 3.08438 13 25.6427
      vertex 0.790438 13 21.1406
    endloop
  endfacet
  facet normal -0.891006 0 0.453991
    outer loop
      vertex 3.08438 13 25.6427
      vertex 0.790438 10 21.1406
      vertex 3.08438 10 25.6427
    endloop
  endfacet
  facet normal 0.453991 0 0.891007
    outer loop
      vertex 21.1406 13 31.5096
      vertex 25.6427 10 29.2156
      vertex 25.6427 13 29.2156
    endloop
  endfacet
  facet normal 0.453991 0 0.891007
    outer loop
      vertex 25.6427 10 29.2156
      vertex 21.1406 13 31.5096
      vertex 21.1406 10 31.5096
    endloop
  endfacet
endsolid OpenSCAD_Model
